(footprint "L_Murata_FDSD0518" (version 20221018) (generator pcbnew)
  (layer "F.Cu")
  (descr "https://www.murata.com/~/media/webrenewal/products/inductor/chip/tokoproducts/wirewoundferritetypeforpl/m_dem3518c.ashx")
  (tags "Inductor SMD DEM35xxC")
  (attr smd)
  (fp_text reference "REF**" (at -0.01 -3.51) (layer "F.SilkS")
      (effects (font (size 1 1) (thickness 0.15)))
    (tstamp 53c493da-ef3c-4436-bdb7-774308a474c4)
  )
  (fp_text value "L_Murata_FDSD0518" (at 0 3.52) (layer "F.Fab")
      (effects (font (size 1 1) (thickness 0.15)))
    (tstamp b6400d19-2885-47e5-93af-005a2b6e71bd)
  )
  (fp_text user "${REFERENCE}" (at 0 0) (layer "F.Fab")
      (effects (font (size 0.7 0.7) (thickness 0.1)))
    (tstamp 677d90b2-a479-4dd2-a90f-b741119d630b)
  )
  (fp_line (start -2.6 -2.6) (end 2.6 -2.6)
    (stroke (width 0.12) (type solid)) (layer "F.SilkS") (tstamp 581696af-e516-401d-8c90-66389efc5980))
  (fp_line (start -2.6 2.6) (end 2.6 2.6)
    (stroke (width 0.12) (type solid)) (layer "F.SilkS") (tstamp a460ca94-ffea-41e7-bd10-099dfa533fea))
  (fp_line (start -2.85 -2.7) (end -2.85 2.7)
    (stroke (width 0.05) (type solid)) (layer "F.CrtYd") (tstamp e2d1551c-0c6c-42dd-a9e7-8d14392fae63))
  (fp_line (start -2.85 2.7) (end 2.85 2.7)
    (stroke (width 0.05) (type solid)) (layer "F.CrtYd") (tstamp 940642a5-7f67-474f-a4a0-7597540f79c6))
  (fp_line (start 2.85 -2.7) (end -2.85 -2.7)
    (stroke (width 0.05) (type solid)) (layer "F.CrtYd") (tstamp 46b0fe1d-8c11-46c6-a952-cf5f59069ebd))
  (fp_line (start 2.85 2.7) (end 2.85 -2.7)
    (stroke (width 0.05) (type solid)) (layer "F.CrtYd") (tstamp e5e685d9-256a-47b9-a3aa-0db484dd8dca))
  (fp_line (start -2.6 -2.45) (end 2.6 -2.45)
    (stroke (width 0.1) (type solid)) (layer "F.Fab") (tstamp 8bb08bce-411e-4f12-90f1-69b87bc164a6))
  (fp_line (start -2.6 2.45) (end -2.6 -2.45)
    (stroke (width 0.1) (type solid)) (layer "F.Fab") (tstamp 9174df11-9716-4640-8688-04e540c55b65))
  (fp_line (start 2.6 -2.45) (end 2.6 2.45)
    (stroke (width 0.1) (type solid)) (layer "F.Fab") (tstamp 6e9a1707-68ac-475e-9629-b97c28fdb82e))
  (fp_line (start 2.6 2.45) (end -2.6 2.45)
    (stroke (width 0.1) (type solid)) (layer "F.Fab") (tstamp ab7535b8-6c5c-4482-a433-f9a5be835bc4))
  (pad "1" smd rect (at -1.95 0) (size 1.7 2.8) (layers "F.Cu" "F.Paste" "F.Mask") (tstamp 25d7ef95-f5f7-4bca-af05-3dd4db7b3bbc))
  (pad "2" smd rect (at 1.95 0) (size 1.7 2.8) (layers "F.Cu" "F.Paste" "F.Mask") (tstamp 31061f31-c3af-44da-b5ca-3c299ac5de2b))
  (model "${KIPRJMOD}/libs/Inductor/3d/FDSD0518-H-R68M=P3.step"
    (offset (xyz 0 0 0))
    (scale (xyz 1 1 1))
    (rotate (xyz -90 0 -90))
  )
)
