(footprint "Conference_Logo" (version 20221018) (generator pcbnew)
  (layer "F.Cu")
  (attr board_only exclude_from_pos_files exclude_from_bom allow_missing_courtyard)
  (fp_text reference "G***" (at 0 0) (layer "Dwgs.User") hide
      (effects (font (size 1.524 1.524) (thickness 0.3)))
    (tstamp c731c80f-9b32-4ea1-86cf-c211d471f926)
  )
  (fp_text value "" (at 0.75 0) (layer "F.SilkS") hide
      (effects (font (size 1.524 1.524) (thickness 0.3)))
    (tstamp 59c208fa-96fe-4339-9c4b-7f639ebd10a7)
  )
  (fp_poly
    (pts
      (xy 20.806383 5.269149)
      (xy 20.671276 5.404255)
      (xy 20.53617 5.269149)
      (xy 20.671276 5.134042)
    )

    (stroke (width 0) (type solid)) (fill solid) (layer "F.SilkS") (tstamp a86eb162-5633-43a6-91d0-4cef37fa5cd8))
  (fp_poly
    (pts
      (xy 23.238298 -11.21383)
      (xy 23.103191 -11.078724)
      (xy 22.968085 -11.21383)
      (xy 23.103191 -11.348936)
    )

    (stroke (width 0) (type solid)) (fill solid) (layer "F.SilkS") (tstamp c74229a4-40c2-4a2b-b7d1-f25b1a98843d))
  (fp_poly
    (pts
      (xy -27.041184 3.118791)
      (xy -27.02987 3.429265)
      (xy -27.135362 3.964238)
      (xy -27.386853 4.235418)
      (xy -27.65972 4.112623)
      (xy -27.669482 4.097407)
      (xy -27.638457 3.725895)
      (xy -27.426534 3.349914)
      (xy -27.134939 3.003783)
    )

    (stroke (width 0) (type solid)) (fill solid) (layer "F.SilkS") (tstamp ae95fc0b-aa7e-4f5f-930e-ecf967b9bb65))
  (fp_poly
    (pts
      (xy -25.059266 3.358381)
      (xy -24.918126 3.911612)
      (xy -24.910008 3.985638)
      (xy -24.953552 4.602056)
      (xy -25.163812 4.872905)
      (xy -25.439235 4.722589)
      (xy -25.56644 4.474294)
      (xy -25.648746 3.865915)
      (xy -25.497373 3.344555)
      (xy -25.264894 3.160727)
    )

    (stroke (width 0) (type solid)) (fill solid) (layer "F.SilkS") (tstamp d0914f38-0e55-4840-a264-f6cae2341ad1))
  (fp_poly
    (pts
      (xy 54.568651 -4.988244)
      (xy 54.777453 -4.659442)
      (xy 54.570161 -4.310529)
      (xy 54.550044 -4.297332)
      (xy 53.897451 -4.068616)
      (xy 53.419223 -4.252506)
      (xy 53.367021 -4.323405)
      (xy 53.326566 -4.771986)
      (xy 53.70033 -5.079679)
      (xy 54.042553 -5.134043)
    )

    (stroke (width 0) (type solid)) (fill solid) (layer "F.SilkS") (tstamp ae308dc4-b218-47f9-b12d-df4e4f33f974))
  (fp_poly
    (pts
      (xy -2.054379 -17.654841)
      (xy -1.80346 -17.422415)
      (xy -1.697362 -16.851446)
      (xy -1.673293 -16.550532)
      (xy -1.590203 -15.402128)
      (xy -3.543839 -15.402128)
      (xy -3.46075 -16.550532)
      (xy -3.377405 -17.272255)
      (xy -3.189344 -17.603901)
      (xy -2.779667 -17.695682)
      (xy -2.567021 -17.698936)
    )

    (stroke (width 0) (type solid)) (fill solid) (layer "F.SilkS") (tstamp bd09bcfd-d631-4f2a-94a0-4cd5a6f53e9c))
  (fp_poly
    (pts
      (xy -40.289554 10.101876)
      (xy -40.441148 10.403141)
      (xy -41.067323 10.885547)
      (xy -41.349821 11.06549)
      (xy -41.985826 11.500089)
      (xy -42.370836 11.844662)
      (xy -42.423404 11.943682)
      (xy -42.63055 12.153598)
      (xy -42.693617 12.159574)
      (xy -42.938215 11.947226)
      (xy -42.953982 11.821808)
      (xy -42.739174 11.456106)
      (xy -42.222853 10.958859)
      (xy -41.574817 10.462958)
      (xy -40.964864 10.101296)
      (xy -40.623509 9.997872)
    )

    (stroke (width 0) (type solid)) (fill solid) (layer "F.SilkS") (tstamp 0eb0c0d8-2f4b-4eee-908a-0dc5ff56e3e2))
  (fp_poly
    (pts
      (xy 20.808121 -4.434976)
      (xy 20.941489 -4.427566)
      (xy 23.071488 -4.295643)
      (xy 24.689152 -4.167297)
      (xy 25.822529 -4.039284)
      (xy 26.499668 -3.908358)
      (xy 26.748616 -3.771276)
      (xy 26.751064 -3.755555)
      (xy 26.655474 -3.620421)
      (xy 26.323451 -3.559599)
      (xy 25.687117 -3.576118)
      (xy 24.678592 -3.673011)
      (xy 23.229998 -3.853309)
      (xy 22.562766 -3.942595)
      (xy 20.992481 -4.16093)
      (xy 19.948017 -4.320365)
      (xy 19.418362 -4.424192)
      (xy 19.392503 -4.475707)
      (xy 19.859427 -4.478203)
    )

    (stroke (width 0) (type solid)) (fill solid) (layer "F.SilkS") (tstamp d6e4a648-84d4-4260-a9d8-bcd938fbcee4))
  (fp_poly
    (pts
      (xy -35.893959 17.149819)
      (xy -36.13673 17.491113)
      (xy -36.740395 17.990357)
      (xy -37.356915 18.40819)
      (xy -38.170943 18.943226)
      (xy -38.830027 19.408868)
      (xy -39.132599 19.652316)
      (xy -39.588126 19.968547)
      (xy -39.808821 19.907708)
      (xy -39.690757 19.508722)
      (xy -39.658568 19.455319)
      (xy -39.326479 19.034804)
      (xy -39.135153 18.914893)
      (xy -38.81314 18.745733)
      (xy -38.558121 18.523774)
      (xy -38.139013 18.194711)
      (xy -37.494714 17.772078)
      (xy -36.807833 17.365777)
      (xy -36.260981 17.085713)
      (xy -36.065185 17.023404)
    )

    (stroke (width 0) (type solid)) (fill solid) (layer "F.SilkS") (tstamp 35974253-135e-4651-9e2d-3291db5d6c59))
  (fp_poly
    (pts
      (xy 23.373404 0.376926)
      (xy 25.190911 0.39747)
      (xy 26.534617 0.428952)
      (xy 27.471122 0.477086)
      (xy 28.067025 0.547587)
      (xy 28.388926 0.646169)
      (xy 28.503424 0.778546)
      (xy 28.507447 0.817431)
      (xy 28.389229 1.04507)
      (xy 27.99935 1.187381)
      (xy 27.284976 1.245392)
      (xy 26.19327 1.220131)
      (xy 24.671398 1.112627)
      (xy 22.726286 0.929944)
      (xy 21.013431 0.752452)
      (xy 19.809174 0.61378)
      (xy 19.118087 0.51002)
      (xy 18.944743 0.437264)
      (xy 19.293715 0.391606)
      (xy 20.169573 0.369138)
      (xy 21.576891 0.365953)
    )

    (stroke (width 0) (type solid)) (fill solid) (layer "F.SilkS") (tstamp 262a44e1-f784-4a41-b23b-d6036c5e5cff))
  (fp_poly
    (pts
      (xy -34.574397 14.433559)
      (xy -34.756557 14.733791)
      (xy -35.331128 15.167048)
      (xy -35.713078 15.394947)
      (xy -36.615918 15.92816)
      (xy -37.65463 16.58043)
      (xy -38.69804 17.264702)
      (xy -39.614975 17.893925)
      (xy -40.274261 18.381044)
      (xy -40.483663 18.56093)
      (xy -40.933031 18.882908)
      (xy -41.165795 18.844998)
      (xy -41.068193 18.487131)
      (xy -40.99866 18.380165)
      (xy -40.595033 17.979207)
      (xy -39.861893 17.401117)
      (xy -38.910883 16.719349)
      (xy -37.853643 16.007361)
      (xy -36.801815 15.338608)
      (xy -35.867039 14.786547)
      (xy -35.160956 14.424635)
      (xy -34.82983 14.321276)
    )

    (stroke (width 0) (type solid)) (fill solid) (layer "F.SilkS") (tstamp b72b501c-f7fd-4d14-9240-532b95245348))
  (fp_poly
    (pts
      (xy 22.486975 5.449594)
      (xy 23.561674 5.478869)
      (xy 24.876853 5.532764)
      (xy 25.387607 5.557661)
      (xy 26.91754 5.643554)
      (xy 27.982046 5.727834)
      (xy 28.655951 5.822621)
      (xy 29.014079 5.940035)
      (xy 29.131254 6.092196)
      (xy 29.127814 6.163503)
      (xy 29.062276 6.389827)
      (xy 28.915286 6.534357)
      (xy 28.605811 6.596558)
      (xy 28.052813 6.575894)
      (xy 27.175259 6.47183)
      (xy 25.892113 6.283832)
      (xy 24.927748 6.135757)
      (xy 23.625981 5.925978)
      (xy 22.552373 5.736058)
      (xy 21.800788 5.583911)
      (xy 21.465089 5.487452)
      (xy 21.457755 5.47345)
      (xy 21.75244 5.447076)
    )

    (stroke (width 0) (type solid)) (fill solid) (layer "F.SilkS") (tstamp 326bb085-ffab-44e4-a66b-256030d447bf))
  (fp_poly
    (pts
      (xy -38.640982 11.023495)
      (xy -38.640426 11.050555)
      (xy -38.846574 11.287798)
      (xy -39.36644 11.703626)
      (xy -40.052153 12.195559)
      (xy -40.755841 12.661119)
      (xy -41.329636 12.997826)
      (xy -41.606589 13.106201)
      (xy -41.88737 13.25646)
      (xy -42.432657 13.634954)
      (xy -42.719123 13.849286)
      (xy -43.487411 14.394794)
      (xy -43.874425 14.563943)
      (xy -43.885438 14.358048)
      (xy -43.74601 14.105908)
      (xy -43.585378 13.874766)
      (xy -43.364249 13.647379)
      (xy -42.999353 13.363137)
      (xy -42.40742 12.961433)
      (xy -41.505181 12.381656)
      (xy -40.531915 11.766484)
      (xy -39.593597 11.192948)
      (xy -39.018892 10.898083)
      (xy -38.727966 10.851671)
    )

    (stroke (width 0) (type solid)) (fill solid) (layer "F.SilkS") (tstamp 2ada86cd-d8df-4c87-b868-ee9ea337c1ad))
  (fp_poly
    (pts
      (xy -37.289362 11.856439)
      (xy -37.497683 12.094752)
      (xy -38.037841 12.530299)
      (xy -38.782627 13.075121)
      (xy -39.604834 13.641255)
      (xy -40.377252 14.140739)
      (xy -40.972672 14.485612)
      (xy -41.244742 14.591489)
      (xy -41.520609 14.74728)
      (xy -42.087551 15.153966)
      (xy -42.757784 15.67234)
      (xy -43.582265 16.28984)
      (xy -44.150375 16.642833)
      (xy -44.417036 16.721738)
      (xy -44.337168 16.516975)
      (xy -43.865692 16.018964)
      (xy -43.711372 15.875)
      (xy -42.893444 15.183232)
      (xy -41.90634 14.437436)
      (xy -40.836829 13.691906)
      (xy -39.771678 13.000938)
      (xy -38.797657 12.418827)
      (xy -38.001534 11.999868)
      (xy -37.470078 11.798356)
    )

    (stroke (width 0) (type solid)) (fill solid) (layer "F.SilkS") (tstamp fa4d171f-666a-458d-a692-8d56090f0810))
  (fp_poly
    (pts
      (xy 20.187678 -7.402454)
      (xy 21.943932 -7.377551)
      (xy 23.778723 -7.347523)
      (xy 25.69737 -7.307806)
      (xy 27.439425 -7.257252)
      (xy 28.931537 -7.19916)
      (xy 30.100351 -7.136828)
      (xy 30.872517 -7.073556)
      (xy 31.172519 -7.015009)
      (xy 31.265126 -6.663498)
      (xy 31.080373 -6.317845)
      (xy 30.855861 -6.24685)
      (xy 30.543668 -6.276727)
      (xy 29.771791 -6.342832)
      (xy 28.619278 -6.438623)
      (xy 27.165174 -6.557563)
      (xy 25.488526 -6.693112)
      (xy 24.589362 -6.765239)
      (xy 22.20202 -6.957252)
      (xy 20.348833 -7.11051)
      (xy 19.025171 -7.228339)
      (xy 18.226404 -7.314065)
      (xy 17.9479 -7.371014)
      (xy 18.185032 -7.402511)
      (xy 18.933168 -7.411883)
    )

    (stroke (width 0) (type solid)) (fill solid) (layer "F.SilkS") (tstamp 6eec69a8-d7d1-485e-9445-78c6eef06c1e))
  (fp_poly
    (pts
      (xy 26.011239 -10.949821)
      (xy 26.480851 -10.929299)
      (xy 27.8959 -10.860846)
      (xy 29.587149 -10.779955)
      (xy 31.290948 -10.699204)
      (xy 32.155319 -10.658591)
      (xy 34.040949 -10.561397)
      (xy 35.448883 -10.464311)
      (xy 36.441768 -10.357914)
      (xy 37.08225 -10.23279)
      (xy 37.432975 -10.079522)
      (xy 37.55659 -9.888692)
      (xy 37.559574 -9.84621)
      (xy 37.495665 -9.672892)
      (xy 37.268406 -9.559498)
      (xy 36.824504 -9.508999)
      (xy 36.110663 -9.524369)
      (xy 35.073588 -9.608578)
      (xy 33.659985 -9.764599)
      (xy 31.816559 -9.995403)
      (xy 29.588298 -10.290727)
      (xy 27.796888 -10.535336)
      (xy 26.516886 -10.719196)
      (xy 25.723307 -10.847439)
      (xy 25.391163 -10.925202)
      (xy 25.495469 -10.957617)
    )

    (stroke (width 0) (type solid)) (fill solid) (layer "F.SilkS") (tstamp e9838af2-e44a-4ab6-b3eb-45a5038e19d2))
  (fp_poly
    (pts
      (xy 47.808063 -7.341004)
      (xy 48.660835 -6.81268)
      (xy 49.773183 -6.240399)
      (xy 50.816534 -5.784277)
      (xy 51.720966 -5.384159)
      (xy 52.386052 -5.003635)
      (xy 52.685819 -4.716493)
      (xy 52.691489 -4.686034)
      (xy 52.651668 -4.438215)
      (xy 52.45273 -4.368429)
      (xy 51.975461 -4.481371)
      (xy 51.205319 -4.744586)
      (xy 50.392432 -5.072317)
      (xy 49.344994 -5.546838)
      (xy 48.401999 -6.009057)
      (xy 47.422538 -6.473334)
      (xy 46.831376 -6.656033)
      (xy 46.566942 -6.575036)
      (xy 46.553305 -6.545942)
      (xy 46.256203 -6.244238)
      (xy 45.685325 -5.909972)
      (xy 45.040959 -5.634272)
      (xy 44.523387 -5.508262)
      (xy 44.353995 -5.545296)
      (xy 44.452586 -5.795178)
      (xy 44.854849 -6.304212)
      (xy 45.440204 -6.927774)
      (xy 46.674548 -8.162118)
    )

    (stroke (width 0) (type solid)) (fill solid) (layer "F.SilkS") (tstamp bcd42e22-2fdf-4ca2-8eb8-6a346995dc16))
  (fp_poly
    (pts
      (xy -35.991725 13.473821)
      (xy -36.461061 13.877464)
      (xy -37.230815 14.447258)
      (xy -38.136323 15.064604)
      (xy -39.187022 15.762828)
      (xy -40.087498 16.371595)
      (xy -40.730969 16.818073)
      (xy -40.993383 17.013236)
      (xy -41.38286 17.263488)
      (xy -41.498136 17.293617)
      (xy -41.791214 17.456937)
      (xy -42.324754 17.869503)
      (xy -42.599794 18.104255)
      (xy -43.251678 18.614742)
      (xy -43.736372 18.883321)
      (xy -43.967628 18.87722)
      (xy -43.875059 18.588833)
      (xy -43.420309 17.9665)
      (xy -42.94754 17.480683)
      (xy -42.622027 17.293617)
      (xy -42.303381 17.145861)
      (xy -41.690967 16.760348)
      (xy -40.993249 16.274598)
      (xy -39.804519 15.446619)
      (xy -38.623911 14.681572)
      (xy -37.545616 14.034512)
      (xy -36.663825 13.560497)
      (xy -36.072728 13.314581)
      (xy -35.900797 13.297961)
    )

    (stroke (width 0) (type solid)) (fill solid) (layer "F.SilkS") (tstamp 647d722d-2f5e-42e2-bed6-344ed268171f))
  (fp_poly
    (pts
      (xy -8.113108 10.03119)
      (xy -7.904963 10.185305)
      (xy -7.774902 10.541465)
      (xy -7.708388 11.180913)
      (xy -7.690884 12.184895)
      (xy -7.707855 13.634656)
      (xy -7.712845 13.915957)
      (xy -7.740461 15.444082)
      (xy -7.767544 16.513505)
      (xy -7.807556 17.205767)
      (xy -7.873957 17.602411)
      (xy -7.980209 17.784978)
      (xy -8.139774 17.835011)
      (xy -8.359659 17.834042)
      (xy -8.716394 17.724363)
      (xy -8.875265 17.303552)
      (xy -8.907145 16.820744)
      (xy -8.920202 15.991776)
      (xy -8.920109 15.318043)
      (xy -8.919154 15.267021)
      (xy -8.915155 14.757598)
      (xy -8.914927 13.870229)
      (xy -8.918396 12.767381)
      (xy -8.920461 12.362234)
      (xy -8.916765 11.224509)
      (xy -8.875219 10.523231)
      (xy -8.773593 10.15465)
      (xy -8.589656 10.015012)
      (xy -8.413873 9.997872)
    )

    (stroke (width 0) (type solid)) (fill solid) (layer "F.SilkS") (tstamp 8b632f65-2e7b-467e-a253-899c12e16790))
  (fp_poly
    (pts
      (xy -15.217515 10.363142)
      (xy -14.647103 10.614761)
      (xy -14.59982 10.663366)
      (xy -14.437702 11.121466)
      (xy -14.301407 12.015517)
      (xy -14.204762 13.241179)
      (xy -14.179033 13.838366)
      (xy -14.15753 15.396355)
      (xy -14.238371 16.494828)
      (xy -14.458093 17.210673)
      (xy -14.853233 17.620779)
      (xy -15.46033 17.802033)
      (xy -16.077802 17.834042)
      (xy -17.281443 17.834042)
      (xy -17.278063 15.38618)
      (xy -15.942553 15.38618)
      (xy -15.832308 15.833854)
      (xy -15.672341 15.942553)
      (xy -15.429981 15.724847)
      (xy -15.402128 15.553181)
      (xy -15.566809 15.093131)
      (xy -15.672341 14.996808)
      (xy -15.885023 15.079543)
      (xy -15.942553 15.38618)
      (xy -17.278063 15.38618)
      (xy -17.27622 14.051064)
      (xy -17.274168 12.564893)
      (xy -15.942553 12.564893)
      (xy -15.796646 12.924484)
      (xy -15.672341 12.970212)
      (xy -15.432613 12.751352)
      (xy -15.402128 12.564893)
      (xy -15.548035 12.205303)
      (xy -15.672341 12.159574)
      (xy -15.912068 12.378435)
      (xy -15.942553 12.564893)
      (xy -17.274168 12.564893)
      (xy -17.270998 10.268085)
      (xy -16.099436 10.268085)
    )

    (stroke (width 0) (type solid)) (fill solid) (layer "F.SilkS") (tstamp 5dc7248d-4545-41e2-a4da-09f34eac0374))
  (fp_poly
    (pts
      (xy 11.63907 -14.71705)
      (xy 11.878336 -14.21517)
      (xy 12.015696 -13.281359)
      (xy 11.642785 -12.51431)
      (xy 11.056476 -12.054309)
      (xy 10.442075 -11.518169)
      (xy 10.271095 -10.859019)
      (xy 10.258164 -10.095634)
      (xy 10.214675 -9.177067)
      (xy 10.206535 -9.052128)
      (xy 10.118854 -8.351662)
      (xy 9.895113 -8.023911)
      (xy 9.401801 -7.90117)
      (xy 9.280146 -7.888495)
      (xy 8.649451 -7.892592)
      (xy 8.298861 -8.01649)
      (xy 8.294027 -8.023601)
      (xy 8.175435 -8.438268)
      (xy 8.090434 -9.071171)
      (xy 8.07527 -9.610379)
      (xy 8.096018 -9.72766)
      (xy 8.19975 -10.302462)
      (xy 8.194888 -10.991641)
      (xy 8.099875 -11.587875)
      (xy 7.933151 -11.88384)
      (xy 7.903723 -11.889524)
      (xy 7.595981 -12.050858)
      (xy 7.654273 -12.352582)
      (xy 7.86198 -12.483426)
      (xy 8.059161 -12.790553)
      (xy 8.184992 -13.433484)
      (xy 8.199746 -13.654348)
      (xy 8.279706 -14.369422)
      (xy 8.506273 -14.707198)
      (xy 8.864341 -14.814892)
      (xy 9.516264 -14.760016)
      (xy 9.860366 -14.593481)
      (xy 10.357572 -14.425136)
      (xy 10.773474 -14.572739)
      (xy 11.334619 -14.821906)
    )

    (stroke (width 0) (type solid)) (fill solid) (layer "F.SilkS") (tstamp 75146729-4cc3-4c56-8676-026a65d2a940))
  (fp_poly
    (pts
      (xy 3.852196 -14.850185)
      (xy 4.157097 -14.747887)
      (xy 4.326815 -14.453195)
      (xy 4.404079 -13.864492)
      (xy 4.431622 -12.880162)
      (xy 4.43871 -12.318807)
      (xy 4.504929 -11.32879)
      (xy 4.662803 -10.736237)
      (xy 4.78341 -10.611748)
      (xy 4.994118 -10.744156)
      (xy 5.084217 -11.351772)
      (xy 5.087749 -11.80358)
      (xy 5.073207 -13.123555)
      (xy 5.09644 -13.995882)
      (xy 5.183119 -14.513205)
      (xy 5.358916 -14.768166)
      (xy 5.649503 -14.853407)
      (xy 5.935174 -14.861702)
      (xy 6.511806 -14.77434)
      (xy 6.880449 -14.455232)
      (xy 7.077003 -13.818849)
      (xy 7.137369 -12.779661)
      (xy 7.12608 -12.024468)
      (xy 7.093991 -10.858477)
      (xy 7.065262 -9.725059)
      (xy 7.048552 -8.984575)
      (xy 6.993668 -8.251216)
      (xy 6.820735 -7.91538)
      (xy 6.467342 -7.836171)
      (xy 5.755368 -7.965584)
      (xy 5.386491 -8.11589)
      (xy 4.95631 -8.257592)
      (xy 4.86383 -8.11589)
      (xy 4.641301 -7.90934)
      (xy 4.131848 -7.845953)
      (xy 3.572671 -7.937159)
      (xy 3.350558 -8.042968)
      (xy 2.968367 -8.440905)
      (xy 2.705814 -9.092649)
      (xy 2.544073 -10.083083)
      (xy 2.464317 -11.497093)
      (xy 2.452496 -12.092022)
      (xy 2.415357 -14.861702)
      (xy 3.369381 -14.861702)
    )

    (stroke (width 0) (type solid)) (fill solid) (layer "F.SilkS") (tstamp 2391f828-c574-4cdf-8f7a-726509b20140))
  (fp_poly
    (pts
      (xy -35.984933 -14.721881)
      (xy -35.653118 -14.583479)
      (xy -35.171119 -14.155012)
      (xy -34.716594 -13.498927)
      (xy -34.698471 -13.464481)
      (xy -34.26369 -12.623705)
      (xy -35.506313 -12.763767)
      (xy -36.237366 -12.800504)
      (xy -36.684028 -12.73493)
      (xy -36.748936 -12.666808)
      (xy -36.52133 -12.476961)
      (xy -36.184271 -12.429788)
      (xy -35.531422 -12.19151)
      (xy -34.963404 -11.596558)
      (xy -34.630117 -10.824748)
      (xy -34.596224 -10.524788)
      (xy -34.483575 -9.886374)
      (xy -34.299651 -9.548161)
      (xy -34.165713 -9.336121)
      (xy -34.260015 -9.080762)
      (xy -34.652943 -8.679442)
      (xy -35.241984 -8.173936)
      (xy -35.9464 -7.888121)
      (xy -36.88112 -7.890841)
      (xy -37.820156 -8.181052)
      (xy -37.829787 -8.1859)
      (xy -38.326094 -8.565476)
      (xy -38.505319 -8.925002)
      (xy -38.647988 -9.392886)
      (xy -38.742597 -9.49479)
      (xy -38.92039 -9.804666)
      (xy -38.679894 -10.063735)
      (xy -38.142761 -10.19822)
      (xy -37.623131 -10.173712)
      (xy -36.674542 -10.019777)
      (xy -37.773652 -10.732454)
      (xy -38.631937 -11.415653)
      (xy -38.999974 -12.081513)
      (xy -38.916012 -12.825612)
      (xy -38.755007 -13.184756)
      (xy -38.480265 -13.805112)
      (xy -38.371878 -14.224814)
      (xy -38.134718 -14.583661)
      (xy -37.542814 -14.801295)
      (xy -36.768705 -14.854956)
    )

    (stroke (width 0) (type solid)) (fill solid) (layer "F.SilkS") (tstamp 1a379a46-924f-46cd-9384-7ced196e2e5b))
  (fp_poly
    (pts
      (xy -10.926944 12.180276)
      (xy -10.451444 12.49734)
      (xy -10.252676 12.923109)
      (xy -10.147194 13.546928)
      (xy -10.145682 14.158089)
      (xy -10.258822 14.545884)
      (xy -10.345271 14.591489)
      (xy -10.446602 14.844437)
      (xy -10.398957 15.578047)
      (xy -10.205694 16.754471)
      (xy -10.111064 17.230839)
      (xy -10.095264 17.66491)
      (xy -10.395868 17.797565)
      (xy -10.742344 17.7859)
      (xy -11.405487 17.804699)
      (xy -11.798925 17.913255)
      (xy -12.189969 17.887596)
      (xy -12.444191 17.68158)
      (xy -12.698746 17.162813)
      (xy -12.918308 16.367601)
      (xy -12.970248 16.077428)
      (xy -12.985583 15.942553)
      (xy -11.754255 15.942553)
      (xy -11.732831 16.19155)
      (xy -11.635096 16.212766)
      (xy -11.359933 16.016615)
      (xy -11.348936 15.942553)
      (xy -11.441129 15.679365)
      (xy -11.468096 15.67234)
      (xy -11.698795 15.861688)
      (xy -11.754255 15.942553)
      (xy -12.985583 15.942553)
      (xy -13.055272 15.329609)
      (xy -12.963344 14.924905)
      (xy -12.620975 14.676002)
      (xy -12.379004 14.570454)
      (xy -11.729244 14.249579)
      (xy -11.499443 14.025433)
      (xy -11.716533 13.948542)
      (xy -12.07172 13.993961)
      (xy -12.555489 14.042285)
      (xy -12.677619 13.827309)
      (xy -12.582544 13.349655)
      (xy -12.197015 12.583197)
      (xy -11.598667 12.174815)
    )

    (stroke (width 0) (type solid)) (fill solid) (layer "F.SilkS") (tstamp 0d31a538-a23d-4a21-b0ae-67380cfcb4e2))
  (fp_poly
    (pts
      (xy 0.992512 -17.080012)
      (xy 1.241438 -16.730485)
      (xy 1.304303 -16.347873)
      (xy 1.438489 -15.690846)
      (xy 1.621173 -15.301428)
      (xy 1.692465 -14.906412)
      (xy 1.55494 -14.418699)
      (xy 1.406164 -13.871933)
      (xy 1.649202 -13.483563)
      (xy 1.778496 -13.379589)
      (xy 2.06884 -13.076703)
      (xy 1.943095 -12.978807)
      (xy 1.719219 -12.820094)
      (xy 1.756383 -12.7)
      (xy 1.714073 -12.454102)
      (xy 1.592188 -12.429788)
      (xy 1.390949 -12.329188)
      (xy 1.431628 -12.259153)
      (xy 1.462737 -11.913487)
      (xy 1.351064 -11.619149)
      (xy 1.22174 -11.153855)
      (xy 1.278321 -10.971325)
      (xy 1.4894 -10.558773)
      (xy 1.510618 -10.462924)
      (xy 1.618015 -9.933386)
      (xy 1.635767 -9.862766)
      (xy 1.613174 -9.38685)
      (xy 1.554991 -9.187234)
      (xy 1.335226 -8.565017)
      (xy 1.25036 -8.309043)
      (xy 0.854487 -7.923256)
      (xy 0.267747 -7.836171)
      (xy -0.276618 -7.881848)
      (xy -0.510147 -8.125279)
      (xy -0.563935 -8.72606)
      (xy -0.564588 -8.849468)
      (xy -0.567019 -9.841261)
      (xy -0.569685 -10.806074)
      (xy -0.569692 -10.808511)
      (xy -0.562532 -11.49166)
      (xy -0.540972 -12.540691)
      (xy -0.508871 -13.781372)
      (xy -0.488923 -14.456383)
      (xy -0.405319 -17.158511)
      (xy 0.405319 -17.158511)
    )

    (stroke (width 0) (type solid)) (fill solid) (layer "F.SilkS") (tstamp ae1bb1d5-b9d5-4d64-b0c6-722481135690))
  (fp_poly
    (pts
      (xy 4.45429 12.280536)
      (xy 4.938435 12.525424)
      (xy 5.065354 12.761398)
      (xy 5.157189 13.246606)
      (xy 5.349323 13.942107)
      (xy 5.355907 13.963171)
      (xy 5.499925 14.586743)
      (xy 5.489304 14.95368)
      (xy 5.479188 14.966911)
      (xy 5.366836 15.310186)
      (xy 5.282709 15.960291)
      (xy 5.275282 16.068398)
      (xy 5.085416 16.88629)
      (xy 4.689272 17.598491)
      (xy 4.198782 18.034582)
      (xy 3.943759 18.095661)
      (xy 3.498062 17.937421)
      (xy 3.209378 17.753245)
      (xy 2.849513 17.198513)
      (xy 2.629898 16.298087)
      (xy 2.548764 15.214227)
      (xy 2.568475 14.822317)
      (xy 3.707907 14.822317)
      (xy 3.722163 15.379911)
      (xy 3.72534 15.402127)
      (xy 3.838876 15.970381)
      (xy 3.947083 16.212664)
      (xy 3.948754 16.212766)
      (xy 4.022149 15.977453)
      (xy 4.053186 15.410672)
      (xy 4.053191 15.402127)
      (xy 3.988426 14.832762)
      (xy 3.832399 14.591544)
      (xy 3.829778 14.591489)
      (xy 3.707907 14.822317)
      (xy 2.568475 14.822317)
      (xy 2.604341 14.109191)
      (xy 2.642533 13.915957)
      (xy 3.782979 13.915957)
      (xy 3.918085 14.051064)
      (xy 4.053191 13.915957)
      (xy 3.918085 13.780851)
      (xy 3.782979 13.915957)
      (xy 2.642533 13.915957)
      (xy 2.79486 13.145241)
      (xy 3.118552 12.484635)
      (xy 3.268284 12.351727)
      (xy 3.821073 12.205198)
    )

    (stroke (width 0) (type solid)) (fill solid) (layer "F.SilkS") (tstamp 6a75b633-b7cb-49f4-ace5-67eeef9410e4))
  (fp_poly
    (pts
      (xy 21.780337 10.209104)
      (xy 21.956394 10.449844)
      (xy 21.9396 10.730344)
      (xy 22.000049 11.454922)
      (xy 22.161011 11.896021)
      (xy 22.325758 12.468295)
      (xy 22.143112 12.852379)
      (xy 21.965546 13.169583)
      (xy 22.02234 13.240425)
      (xy 22.065528 13.405398)
      (xy 21.958342 13.578191)
      (xy 21.720967 14.074268)
      (xy 21.532347 14.765878)
      (xy 21.480688 15.38235)
      (xy 21.692431 15.676065)
      (xy 21.935333 15.763212)
      (xy 22.35305 16.030135)
      (xy 22.353611 16.466745)
      (xy 22.336508 16.976028)
      (xy 22.453027 17.174188)
      (xy 22.71934 17.467007)
      (xy 22.477343 17.682145)
      (xy 21.755212 17.807038)
      (xy 20.973005 17.834042)
      (xy 20.009295 17.810196)
      (xy 19.457919 17.715672)
      (xy 19.191999 17.515991)
      (xy 19.116184 17.329453)
      (xy 19.160701 16.863603)
      (xy 19.385455 16.067255)
      (xy 19.731756 15.094651)
      (xy 20.140916 14.100034)
      (xy 20.554245 13.237646)
      (xy 20.872426 12.713804)
      (xy 21.05682 12.441408)
      (xy 20.882336 12.565717)
      (xy 20.806862 12.632447)
      (xy 20.375835 12.859331)
      (xy 19.853136 12.960672)
      (xy 19.42958 12.927797)
      (xy 19.295982 12.752036)
      (xy 19.320213 12.7)
      (xy 19.324756 12.449885)
      (xy 19.246211 12.429787)
      (xy 19.073919 12.202964)
      (xy 19.04903 11.834973)
      (xy 19.340767 11.168084)
      (xy 20.006702 10.595312)
      (xy 20.881498 10.241782)
      (xy 21.220082 10.191952)
    )

    (stroke (width 0) (type solid)) (fill solid) (layer "F.SilkS") (tstamp 88d0641c-3260-4514-b98f-c568e53b3a52))
  (fp_poly
    (pts
      (xy 8.564286 12.221243)
      (xy 9.045413 12.468294)
      (xy 9.317567 12.993792)
      (xy 9.436077 13.890801)
      (xy 9.457447 14.915744)
      (xy 9.473358 15.989427)
      (xy 9.536296 16.628422)
      (xy 9.669069 16.937922)
      (xy 9.894484 17.023122)
      (xy 9.914412 17.023404)
      (xy 10.196268 17.065735)
      (xy 10.05134 17.259858)
      (xy 9.846858 17.420129)
      (xy 9.224858 17.740657)
      (xy 8.816382 17.825449)
      (xy 8.474941 17.774001)
      (xy 8.579763 17.513234)
      (xy 8.672674 17.397557)
      (xy 8.883663 17.078017)
      (xy 8.66186 17.044466)
      (xy 8.503101 17.075839)
      (xy 8.100342 17.302469)
      (xy 8.03883 17.512324)
      (xy 7.864966 17.756779)
      (xy 7.462705 17.834042)
      (xy 7.034481 17.760739)
      (xy 6.84489 17.438589)
      (xy 6.795039 16.820744)
      (xy 6.742386 15.954599)
      (xy 6.665175 15.357092)
      (xy 7.83617 15.357092)
      (xy 7.879512 16.14248)
      (xy 7.990676 16.6489)
      (xy 8.084664 16.753191)
      (xy 8.21559 16.512655)
      (xy 8.263619 15.903005)
      (xy 8.250196 15.522624)
      (xy 8.15099 14.611292)
      (xy 8.029656 14.189073)
      (xy 7.917685 14.268559)
      (xy 7.846567 14.86234)
      (xy 7.83617 15.357092)
      (xy 6.665175 15.357092)
      (xy 6.646647 15.213706)
      (xy 6.63755 15.168084)
      (xy 6.589953 14.496307)
      (xy 6.635284 13.60732)
      (xy 6.666412 13.344147)
      (xy 6.793502 12.610956)
      (xy 7.002536 12.267269)
      (xy 7.436929 12.165672)
      (xy 7.818856 12.159574)
    )

    (stroke (width 0) (type solid)) (fill solid) (layer "F.SilkS") (tstamp 05dd306e-d8d1-4a9b-8e28-20085b39947d))
  (fp_poly
    (pts
      (xy 13.460877 10.106006)
      (xy 13.49503 10.123332)
      (xy 13.621867 10.501227)
      (xy 13.507001 10.953183)
      (xy 13.396015 11.439729)
      (xy 13.485811 11.619149)
      (xy 13.732155 11.841341)
      (xy 13.887062 12.316151)
      (xy 13.872153 12.755929)
      (xy 13.819015 12.841977)
      (xy 13.623975 13.185086)
      (xy 13.622407 13.19539)
      (xy 13.51415 13.582648)
      (xy 13.442317 13.780851)
      (xy 13.130849 14.78907)
      (xy 13.139829 15.420786)
      (xy 13.472547 15.737067)
      (xy 13.54892 15.760645)
      (xy 13.973487 16.02484)
      (xy 13.977015 16.466745)
      (xy 13.959912 16.976028)
      (xy 14.076431 17.174188)
      (xy 14.342744 17.467007)
      (xy 14.100747 17.682145)
      (xy 13.378616 17.807038)
      (xy 12.596409 17.834042)
      (xy 11.632699 17.810196)
      (xy 11.081323 17.715672)
      (xy 10.815403 17.515991)
      (xy 10.739588 17.329453)
      (xy 10.784106 16.863603)
      (xy 11.00886 16.067255)
      (xy 11.355161 15.094651)
      (xy 11.76432 14.100034)
      (xy 12.177649 13.237646)
      (xy 12.49583 12.713804)
      (xy 12.680224 12.441408)
      (xy 12.505741 12.565717)
      (xy 12.430266 12.632447)
      (xy 11.999239 12.859331)
      (xy 11.47654 12.960672)
      (xy 11.052984 12.927797)
      (xy 10.919386 12.752036)
      (xy 10.943617 12.7)
      (xy 10.94816 12.449885)
      (xy 10.869615 12.429787)
      (xy 10.681793 12.221588)
      (xy 10.702872 11.73758)
      (xy 10.906827 11.188646)
      (xy 11.048543 10.979982)
      (xy 11.536373 10.612577)
      (xy 12.246654 10.293459)
      (xy 12.960963 10.099107)
    )

    (stroke (width 0) (type solid)) (fill solid) (layer "F.SilkS") (tstamp aa84b720-f35c-4311-93cf-01f9175506f9))
  (fp_poly
    (pts
      (xy 15.724032 10.179497)
      (xy 16.115764 10.446141)
      (xy 16.265156 10.89179)
      (xy 16.252611 11.575787)
      (xy 16.262379 12.318824)
      (xy 16.405784 12.682373)
      (xy 16.462316 12.7)
      (xy 16.741183 12.506487)
      (xy 16.753191 12.429787)
      (xy 16.969582 12.221824)
      (xy 17.430129 12.161217)
      (xy 17.851897 12.276018)
      (xy 17.900435 12.316038)
      (xy 17.915775 12.643095)
      (xy 17.771662 13.285036)
      (xy 17.669793 13.608593)
      (xy 17.4666 14.312307)
      (xy 17.433399 14.904617)
      (xy 17.58063 15.613996)
      (xy 17.792281 16.289363)
      (xy 18.301874 17.834042)
      (xy 16.867948 17.834042)
      (xy 16.036555 17.792169)
      (xy 15.449945 17.684739)
      (xy 15.285179 17.593209)
      (xy 15.224816 17.236837)
      (xy 15.204437 16.888298)
      (xy 16.212766 16.888298)
      (xy 16.29251 17.3963)
      (xy 16.445508 17.563829)
      (xy 16.575523 17.339013)
      (xy 16.549113 16.888298)
      (xy 16.417134 16.382019)
      (xy 16.316372 16.212766)
      (xy 16.238393 16.444722)
      (xy 16.212766 16.888298)
      (xy 15.204437 16.888298)
      (xy 15.179717 16.465498)
      (xy 15.155298 15.404564)
      (xy 15.153486 14.543844)
      (xy 15.1554 13.105319)
      (xy 16.212766 13.105319)
      (xy 16.347872 13.240425)
      (xy 16.482979 13.105319)
      (xy 16.347872 12.970212)
      (xy 16.212766 13.105319)
      (xy 15.1554 13.105319)
      (xy 15.155412 13.096014)
      (xy 15.133372 12.094314)
      (xy 15.076824 11.444618)
      (xy 14.975229 11.052797)
      (xy 14.818042 10.824724)
      (xy 14.728854 10.752209)
      (xy 14.570316 10.457308)
      (xy 14.793862 10.206513)
      (xy 15.243101 10.089824)
    )

    (stroke (width 0) (type solid)) (fill solid) (layer "F.SilkS") (tstamp 69ca26be-f96f-47ee-8553-db830bb00ee3))
  (fp_poly
    (pts
      (xy 25.647477 10.292479)
      (xy 26.06381 10.426517)
      (xy 26.264864 10.761485)
      (xy 26.352784 11.110771)
      (xy 26.362378 12.102026)
      (xy 26.184081 12.614515)
      (xy 25.983263 13.201427)
      (xy 26.118243 13.460658)
      (xy 26.358295 13.822352)
      (xy 26.511543 14.409706)
      (xy 26.550668 15.005164)
      (xy 26.448351 15.391166)
      (xy 26.366499 15.437698)
      (xy 26.4012 15.499647)
      (xy 26.850698 15.608972)
      (xy 27.021276 15.640684)
      (xy 27.967021 15.808097)
      (xy 26.751064 16.415538)
      (xy 26.105324 16.779393)
      (xy 25.929362 16.985245)
      (xy 26.075532 17.024971)
      (xy 26.361352 17.071289)
      (xy 26.242503 17.253998)
      (xy 25.805319 17.563829)
      (xy 25.128042 17.959745)
      (xy 24.615285 18.055812)
      (xy 24.011836 17.892604)
      (xy 23.931765 17.861663)
      (xy 23.588468 17.663492)
      (xy 23.734284 17.454207)
      (xy 23.796659 17.413512)
      (xy 23.950735 17.216995)
      (xy 23.639429 17.056585)
      (xy 23.373404 16.990877)
      (xy 22.84407 16.856987)
      (xy 22.804914 16.752615)
      (xy 23.176439 16.614378)
      (xy 23.58969 16.39955)
      (xy 23.529877 16.106505)
      (xy 23.483773 16.047852)
      (xy 23.340909 15.702222)
      (xy 23.613184 15.511521)
      (xy 24.197468 15.438422)
      (xy 24.411206 15.483324)
      (xy 24.939434 15.47388)
      (xy 25.154291 15.37712)
      (xy 25.337673 15.165995)
      (xy 25.04344 14.999626)
      (xy 24.909936 14.96079)
      (xy 24.484296 14.751772)
      (xy 24.3664 14.331051)
      (xy 24.403529 13.908404)
      (xy 24.535942 13.212653)
      (xy 24.690999 12.754329)
      (xy 24.694941 12.747776)
      (xy 24.610652 12.501747)
      (xy 24.267157 12.381552)
      (xy 23.850423 12.210896)
      (xy 23.65425 11.755729)
      (xy 23.60296 11.281383)
      (xy 23.539196 10.268085)
      (xy 24.853447 10.268085)
    )

    (stroke (width 0) (type solid)) (fill solid) (layer "F.SilkS") (tstamp 69449ad8-5513-4ce9-9143-69389ac59aa7))
  (fp_poly
    (pts
      (xy 15.907978 -14.649036)
      (xy 16.532669 -13.995672)
      (xy 16.895506 -12.90266)
      (xy 17.112253 -12.186411)
      (xy 17.450797 -11.90467)
      (xy 17.593902 -11.889362)
      (xy 18.035251 -11.765529)
      (xy 18.032023 -11.493537)
      (xy 17.590863 -11.222649)
      (xy 17.56383 -11.21383)
      (xy 17.127135 -10.971236)
      (xy 17.023404 -10.790302)
      (xy 16.783873 -10.63152)
      (xy 16.186516 -10.544153)
      (xy 15.9585 -10.538298)
      (xy 15.245108 -10.48354)
      (xy 14.7957 -10.34747)
      (xy 14.747451 -10.301831)
      (xy 14.896724 -10.191135)
      (xy 15.440048 -10.172976)
      (xy 15.856667 -10.206861)
      (xy 16.610337 -10.268274)
      (xy 16.944054 -10.205799)
      (xy 16.970339 -9.987896)
      (xy 16.94109 -9.902903)
      (xy 16.930614 -9.531361)
      (xy 17.064971 -9.457447)
      (xy 17.195488 -9.326126)
      (xy 16.975838 -9.003574)
      (xy 16.506465 -8.59691)
      (xy 15.908099 -8.223673)
      (xy 15.060366 -7.933666)
      (xy 14.311223 -7.836171)
      (xy 13.65425 -7.94159)
      (xy 13.277129 -8.365115)
      (xy 13.161134 -8.637746)
      (xy 12.833575 -9.222634)
      (xy 12.465948 -9.514888)
      (xy 12.460816 -9.515937)
      (xy 12.209842 -9.629117)
      (xy 12.367857 -9.894032)
      (xy 12.483673 -10.013162)
      (xy 12.757874 -10.426775)
      (xy 12.591347 -10.860611)
      (xy 12.552084 -10.915438)
      (xy 12.321478 -11.565139)
      (xy 12.336532 -11.981)
      (xy 12.447274 -12.587412)
      (xy 14.612822 -12.587412)
      (xy 14.662502 -12.236942)
      (xy 14.754743 -12.232757)
      (xy 14.819247 -12.594408)
      (xy 14.776075 -12.750665)
      (xy 14.656092 -12.853017)
      (xy 14.612822 -12.587412)
      (xy 12.447274 -12.587412)
      (xy 12.457717 -12.644594)
      (xy 12.490978 -12.970213)
      (xy 12.743441 -13.538321)
      (xy 13.339507 -14.12912)
      (xy 14.104758 -14.611309)
      (xy 14.864774 -14.853587)
      (xy 15.003596 -14.861702)
    )

    (stroke (width 0) (type solid)) (fill solid) (layer "F.SilkS") (tstamp 0fa35f08-e103-4d6d-912c-092d2681f4bc))
  (fp_poly
    (pts
      (xy -12.461299 -16.977965)
      (xy -12.120502 -16.966779)
      (xy -10.920533 -16.894585)
      (xy -10.173999 -16.770207)
      (xy -9.79503 -16.576263)
      (xy -9.730585 -16.482979)
      (xy -9.457206 -15.922674)
      (xy -9.229232 -15.473348)
      (xy -8.977846 -14.877896)
      (xy -9.042906 -14.52941)
      (xy -9.499308 -14.351147)
      (xy -10.406299 -14.267208)
      (xy -11.319817 -14.15832)
      (xy -11.799861 -13.984672)
      (xy -11.81958 -13.792751)
      (xy -11.352123 -13.629039)
      (xy -10.81328 -13.562655)
      (xy -10.116518 -13.472672)
      (xy -9.806302 -13.263845)
      (xy -9.72878 -12.811717)
      (xy -9.72766 -12.684464)
      (xy -9.828506 -12.10572)
      (xy -10.065426 -11.885224)
      (xy -10.235303 -11.81167)
      (xy -10.030807 -11.645222)
      (xy -9.770901 -11.318422)
      (xy -9.978866 -11.030717)
      (xy -10.58238 -10.836957)
      (xy -11.162224 -10.787178)
      (xy -11.771899 -10.747031)
      (xy -12.004783 -10.670184)
      (xy -11.955231 -10.628993)
      (xy -11.750722 -10.341111)
      (xy -11.794311 -10.203275)
      (xy -11.964854 -9.718335)
      (xy -12.042501 -9.279807)
      (xy -11.961257 -8.761304)
      (xy -11.482065 -8.488242)
      (xy -11.402633 -8.467125)
      (xy -10.934531 -8.324043)
      (xy -10.954613 -8.199829)
      (xy -11.223679 -8.081599)
      (xy -12.139524 -7.903607)
      (xy -13.195039 -7.94428)
      (xy -13.550471 -8.017097)
      (xy -13.823425 -8.331937)
      (xy -14.073919 -9.017863)
      (xy -14.272415 -9.905583)
      (xy -14.389374 -10.825803)
      (xy -14.395258 -11.60923)
      (xy -14.260527 -12.086572)
      (xy -14.260525 -12.086574)
      (xy -14.134196 -12.539715)
      (xy -14.119469 -13.317882)
      (xy -14.159154 -13.775404)
      (xy -14.211355 -14.576148)
      (xy -14.150408 -15.054774)
      (xy -14.071475 -15.131915)
      (xy -13.953528 -15.361667)
      (xy -14.065047 -15.991197)
      (xy -14.069926 -16.008323)
      (xy -14.239916 -16.622311)
      (xy -14.320302 -16.954522)
      (xy -14.321277 -16.964995)
      (xy -14.072419 -16.993085)
      (xy -13.410233 -16.997442)
    )

    (stroke (width 0) (type solid)) (fill solid) (layer "F.SilkS") (tstamp 2a8b6fcc-302e-4628-abc6-fd0096df4db8))
  (fp_poly
    (pts
      (xy -4.228588 10.250894)
      (xy -3.676403 10.900713)
      (xy -3.348514 11.548714)
      (xy -3.027207 12.407222)
      (xy -3.051932 12.906234)
      (xy -3.482694 13.144779)
      (xy -4.362048 13.221433)
      (xy -5.049615 13.463825)
      (xy -5.385209 14.085257)
      (xy -5.404255 14.322421)
      (xy -5.173259 14.541691)
      (xy -4.598131 14.807561)
      (xy -4.390958 14.879903)
      (xy -3.550907 15.224673)
      (xy -3.17186 15.612376)
      (xy -3.17762 16.144917)
      (xy -3.259661 16.39287)
      (xy -3.362047 16.894658)
      (xy -3.235865 17.023404)
      (xy -2.963191 17.137092)
      (xy -3.071682 17.38427)
      (xy -3.476873 17.624113)
      (xy -3.622769 17.66849)
      (xy -4.279832 17.843686)
      (xy -4.636067 17.949099)
      (xy -5.166557 17.945412)
      (xy -5.539362 17.834136)
      (xy -5.83134 17.650703)
      (xy -5.742021 17.582821)
      (xy -5.431106 17.414896)
      (xy -5.485909 17.142237)
      (xy -5.809575 17.023404)
      (xy -6.077411 16.998225)
      (xy -6.222376 16.832378)
      (xy -6.295081 16.390403)
      (xy -6.343109 15.595296)
      (xy -6.37069 15.402127)
      (xy -5.134043 15.402127)
      (xy -4.928418 15.664488)
      (xy -4.86383 15.67234)
      (xy -4.601469 15.466715)
      (xy -4.593617 15.402127)
      (xy -4.799242 15.139767)
      (xy -4.86383 15.131915)
      (xy -5.126191 15.33754)
      (xy -5.134043 15.402127)
      (xy -6.37069 15.402127)
      (xy -6.449384 14.85098)
      (xy -6.642984 14.335049)
      (xy -6.683746 14.284764)
      (xy -6.77024 13.926721)
      (xy -6.410692 13.436224)
      (xy -6.038164 13.030168)
      (xy -6.04466 12.826517)
      (xy -6.121237 12.790071)
      (xy -4.503546 12.790071)
      (xy -4.466454 12.950712)
      (xy -4.323404 12.970212)
      (xy -4.100989 12.871346)
      (xy -4.143263 12.790071)
      (xy -4.463942 12.757731)
      (xy -4.503546 12.790071)
      (xy -6.121237 12.790071)
      (xy -6.370161 12.671599)
      (xy -6.679971 12.510703)
      (xy -6.48199 12.449628)
      (xy -6.464352 12.448779)
      (xy -6.168027 12.278901)
      (xy -6.141013 11.737139)
      (xy -6.153731 11.643163)
      (xy -6.122864 10.97136)
      (xy -5.701653 10.488414)
      (xy -5.579737 10.404798)
      (xy -4.844505 10.095087)
    )

    (stroke (width 0) (type solid)) (fill solid) (layer "F.SilkS") (tstamp aa281e4b-e147-4a86-b999-99d2ba1ee8ae))
  (fp_poly
    (pts
      (xy 0.187163 10.223793)
      (xy 0.729272 10.785304)
      (xy 1.143896 11.519557)
      (xy 1.258178 11.897806)
      (xy 1.46081 12.47383)
      (xy 1.722606 12.732099)
      (xy 1.663664 12.803679)
      (xy 1.189444 12.953878)
      (xy 0.675532 13.084372)
      (xy -0.13464 13.312472)
      (xy -0.539899 13.558653)
      (xy -0.67046 13.916503)
      (xy -0.675532 14.055433)
      (xy -0.574283 14.514793)
      (xy -0.175828 14.794998)
      (xy 0.361739 14.95163)
      (xy 1.023858 15.141734)
      (xy 1.283769 15.394763)
      (xy 1.269608 15.877541)
      (xy 1.232382 16.085138)
      (xy 1.196299 16.810039)
      (xy 1.411069 17.09485)
      (xy 1.407407 17.257336)
      (xy 0.997648 17.526817)
      (xy 0.710086 17.660309)
      (xy -0.039828 17.965565)
      (xy -0.480894 18.073182)
      (xy -0.799761 18.001268)
      (xy -1.080851 17.834042)
      (xy -1.300705 17.61555)
      (xy -1.148404 17.567967)
      (xy -0.834361 17.393129)
      (xy -0.810638 17.293617)
      (xy -1.028174 17.050881)
      (xy -1.197749 17.023404)
      (xy -1.572331 16.807366)
      (xy -1.852195 16.132085)
      (xy -1.982769 15.402127)
      (xy -0.675532 15.402127)
      (xy -0.614275 15.633457)
      (xy -0.421266 15.67234)
      (xy -0.051558 15.531262)
      (xy 0 15.402127)
      (xy -0.193939 15.139649)
      (xy -0.254266 15.131915)
      (xy -0.620225 15.328332)
      (xy -0.675532 15.402127)
      (xy -1.982769 15.402127)
      (xy -2.039074 15.087359)
      (xy -2.150297 14.461708)
      (xy -2.270459 14.12253)
      (xy -2.272365 14.120542)
      (xy -2.202764 13.858168)
      (xy -1.866044 13.421075)
      (xy -1.516034 13.003598)
      (xy -1.52599 12.90561)
      (xy -0.153016 12.90561)
      (xy 0.112589 12.94888)
      (xy 0.463059 12.8992)
      (xy 0.467243 12.806959)
      (xy 0.105593 12.742454)
      (xy -0.050665 12.785626)
      (xy -0.153016 12.90561)
      (xy -1.52599 12.90561)
      (xy -1.53736 12.793699)
      (xy -1.814762 12.658193)
      (xy -2.091596 12.498425)
      (xy -2.026596 12.448242)
      (xy -1.822377 12.197502)
      (xy -1.699562 11.617695)
      (xy -1.697226 11.586987)
      (xy -1.44375 10.772175)
      (xy -0.902361 10.19122)
      (xy -0.337766 10.006466)
    )

    (stroke (width 0) (type solid)) (fill solid) (layer "F.SilkS") (tstamp cdb93b68-efb1-4c2c-9674-b78f913261f7))
  (fp_poly
    (pts
      (xy -5.475694 -14.740235)
      (xy -5.037538 -14.456383)
      (xy -4.585309 -14.124425)
      (xy -4.351186 -14.051064)
      (xy -4.185968 -13.853774)
      (xy -4.225688 -13.645745)
      (xy -4.183113 -13.31561)
      (xy -3.828571 -13.240426)
      (xy -3.4259 -13.359)
      (xy -3.319204 -13.810555)
      (xy -3.326788 -13.983511)
      (xy -3.285869 -14.517772)
      (xy -2.956603 -14.746527)
      (xy -2.558353 -14.806878)
      (xy -1.997196 -14.796416)
      (xy -1.660639 -14.530218)
      (xy -1.380401 -13.895342)
      (xy -1.206258 -13.224689)
      (xy -1.217906 -12.786809)
      (xy -1.257148 -12.734209)
      (xy -1.380642 -12.397789)
      (xy -1.4818 -11.674476)
      (xy -1.539497 -10.7178)
      (xy -1.540691 -10.673405)
      (xy -1.567297 -9.648563)
      (xy -1.590493 -8.790687)
      (xy -1.605059 -8.291923)
      (xy -1.733119 -7.956384)
      (xy -2.179068 -7.86618)
      (xy -2.499468 -7.886603)
      (xy -3.37766 -7.971277)
      (xy -3.512766 -9.949134)
      (xy -3.554055 -10.997927)
      (xy -3.534957 -11.886697)
      (xy -3.459798 -12.431704)
      (xy -3.45392 -12.448602)
      (xy -3.409656 -12.854166)
      (xy -3.781603 -12.969633)
      (xy -3.836722 -12.970213)
      (xy -4.221811 -12.90641)
      (xy -4.242841 -12.799578)
      (xy -4.198601 -12.440221)
      (xy -4.450409 -11.990116)
      (xy -4.849995 -11.666157)
      (xy -5.049789 -11.619149)
      (xy -5.301775 -11.562733)
      (xy -5.147091 -11.328382)
      (xy -4.94766 -11.146277)
      (xy -4.505074 -10.425236)
      (xy -4.410925 -9.77144)
      (xy -4.315715 -9.091243)
      (xy -4.081156 -8.665466)
      (xy -4.061721 -8.652081)
      (xy -3.904383 -8.401004)
      (xy -4.210266 -8.177203)
      (xy -4.902168 -8.00596)
      (xy -5.902888 -7.912556)
      (xy -6.35 -7.902723)
      (xy -7.466039 -7.961105)
      (xy -8.152557 -8.160939)
      (xy -8.376596 -8.332423)
      (xy -8.701923 -8.737444)
      (xy -8.786053 -8.91038)
      (xy -8.915307 -9.239059)
      (xy -8.989589 -9.365509)
      (xy -9.074335 -9.865973)
      (xy -9.01363 -10.135866)
      (xy -9.02111 -10.268085)
      (xy -6.890426 -10.268085)
      (xy -6.869002 -10.019089)
      (xy -6.771266 -9.997873)
      (xy -6.496103 -10.194023)
      (xy -6.485106 -10.268085)
      (xy -6.577299 -10.531273)
      (xy -6.604266 -10.538298)
      (xy -6.834965 -10.34895)
      (xy -6.890426 -10.268085)
      (xy -9.02111 -10.268085)
      (xy -9.042529 -10.64672)
      (xy -9.215413 -10.831644)
      (xy -9.446887 -11.02791)
      (xy -9.187234 -11.078724)
      (xy -8.933977 -11.136179)
      (xy -9.142131 -11.315343)
      (xy -9.192183 -11.509456)
      (xy -8.735004 -11.724499)
      (xy -8.301685 -11.846017)
      (xy -7.488192 -12.132861)
      (xy -6.87165 -12.494086)
      (xy -6.738543 -12.626833)
      (xy -6.513937 -12.94333)
      (xy -6.632276 -12.875051)
      (xy -6.75484 -12.767553)
      (xy -7.42571 -12.463695)
      (xy -8.167581 -12.520337)
      (xy -8.646809 -12.835107)
      (xy -8.845826 -13.159673)
      (xy -8.650985 -13.240426)
      (xy -8.441393 -13.435164)
      (xy -8.474285 -13.645674)
      (xy -8.387086 -14.021256)
      (xy -7.80285 -14.394)
      (xy -7.659557 -14.456312)
      (xy -6.413262 -14.819888)
    )

    (stroke (width 0) (type solid)) (fill solid) (layer "F.SilkS") (tstamp ffe623ed-5f9e-4a15-8a41-4ca4d6d33127))
  (fp_poly
    (pts
      (xy -46.475121 -16.963222)
      (xy -45.710105 -16.397573)
      (xy -45.339002 -15.752275)
      (xy -45.019731 -15.156742)
      (xy -44.660379 -14.86706)
      (xy -44.614285 -14.861702)
      (xy -44.412295 -14.786373)
      (xy -44.663956 -14.520556)
      (xy -44.73612 -14.464977)
      (xy -45.335472 -14.188837)
      (xy -46.061739 -14.07232)
      (xy -46.708623 -14.12333)
      (xy -47.069823 -14.349773)
      (xy -47.08002 -14.375168)
      (xy -47.233878 -14.472097)
      (xy -47.36427 -14.240061)
      (xy -47.366629 -13.859274)
      (xy -47.095279 -13.780851)
      (xy -46.5294 -13.693969)
      (xy -45.839005 -13.483112)
      (xy -45.222051 -13.222968)
      (xy -44.876499 -12.988225)
      (xy -44.855319 -12.935744)
      (xy -45.077123 -12.711792)
      (xy -45.328192 -12.616052)
      (xy -45.474301 -12.521442)
      (xy -45.112121 -12.46412)
      (xy -45.049498 -12.461133)
      (xy -44.366758 -12.60809)
      (xy -44.103622 -13.069674)
      (xy -44.27514 -13.70657)
      (xy -44.313059 -14.221956)
      (xy -43.90845 -14.627091)
      (xy -43.158219 -14.844386)
      (xy -42.83239 -14.861702)
      (xy -42.370382 -14.790035)
      (xy -42.183356 -14.468387)
      (xy -42.153192 -13.931905)
      (xy -42.073823 -13.169898)
      (xy -41.86523 -12.86705)
      (xy -41.571687 -13.055055)
      (xy -41.387859 -13.384005)
      (xy -41.219172 -13.88582)
      (xy -41.358413 -14.049121)
      (xy -41.399992 -14.051064)
      (xy -41.461948 -14.18044)
      (xy -41.191539 -14.44779)
      (xy -40.530238 -14.765865)
      (xy -39.845986 -14.838297)
      (xy -39.361171 -14.648702)
      (xy -39.312693 -14.586207)
      (xy -39.264166 -14.091454)
      (xy -39.450698 -13.400492)
      (xy -39.779095 -12.746427)
      (xy -40.156165 -12.362366)
      (xy -40.209544 -12.342875)
      (xy -40.527118 -12.241674)
      (xy -40.318133 -12.198862)
      (xy -40.207074 -12.19092)
      (xy -39.94322 -12.12151)
      (xy -39.879861 -11.872036)
      (xy -40.00667 -11.305489)
      (xy -40.113075 -10.943617)
      (xy -40.309012 -10.232669)
      (xy -40.394965 -9.794788)
      (xy -40.384152 -9.72766)
      (xy -40.415144 -9.508562)
      (xy -40.610073 -8.964149)
      (xy -40.684436 -8.781915)
      (xy -40.909343 -8.144985)
      (xy -40.874552 -7.869364)
      (xy -40.738201 -7.832033)
      (xy -40.538269 -7.774271)
      (xy -40.743727 -7.60777)
      (xy -40.956604 -7.206244)
      (xy -40.917476 -6.936376)
      (xy -40.92159 -6.564664)
      (xy -41.223573 -6.485107)
      (xy -41.542087 -6.408364)
      (xy -41.526895 -6.309165)
      (xy -41.537657 -6.035906)
      (xy -41.912374 -5.730806)
      (xy -42.490318 -5.491498)
      (xy -43.002473 -5.412849)
      (xy -43.58558 -5.534402)
      (xy -43.862047 -5.783157)
      (xy -43.871431 -6.263444)
      (xy -43.418158 -6.473347)
      (xy -43.189007 -6.485107)
      (xy -42.751416 -6.612881)
      (xy -42.791739 -6.96801)
      (xy -43.017872 -7.241702)
      (xy -43.190121 -7.515122)
      (xy -43.038189 -7.565958)
      (xy -42.848161 -7.809905)
      (xy -42.852302 -8.511862)
      (xy -43.04675 -9.627003)
      (xy -43.305889 -10.673405)
      (xy -43.573684 -11.50004)
      (xy -43.86367 -11.928361)
      (xy -44.275585 -12.094883)
      (xy -44.352134 -12.105492)
      (xy -44.758676 -12.128955)
      (xy -44.918317 -11.982213)
      (xy -44.876168 -11.534227)
      (xy -44.747476 -10.957087)
      (xy -44.512299 -10.231251)
      (xy -44.240521 -9.789834)
      (xy -44.118352 -9.72766)
      (xy -43.800031 -9.56533)
      (xy -43.774468 -9.466954)
      (xy -43.999749 -9.121671)
      (xy -44.501175 -8.845557)
      (xy -45.017125 -8.761303)
      (xy -45.172867 -8.81117)
      (xy -45.35405 -8.837182)
      (xy -45.302709 -8.714881)
      (xy -45.404888 -8.459377)
      (xy -45.875715 -8.181888)
      (xy -46.551206 -7.951869)
      (xy -47.267377 -7.838776)
      (xy -47.37735 -7.836171)
      (xy -47.94274 -7.950955)
      (xy -48.739157 -8.241302)
      (xy -49.118364 -8.41278)
      (xy -49.82086 -8.802085)
      (xy -50.049288 -9.074253)
      (xy -49.946762 -9.219281)
      (xy -49.762668 -9.416281)
      (xy -49.89844 -9.453309)
      (xy -50.089679 -9.677024)
      (xy -50.015695 -10.200532)
      (xy -49.690027 -10.80275)
      (xy -49.060401 -11.032295)
      (xy -48.404503 -11.002239)
      (xy -48.010912 -10.829636)
      (xy -47.511147 -10.583133)
      (xy -47.179149 -10.538298)
      (xy -46.815954 -10.612551)
      (xy -46.916578 -10.812163)
      (xy -47.428667 -11.102417)
      (xy -48.299867 -11.448594)
      (xy -48.805045 -11.616504)
      (xy -49.624373 -11.921176)
      (xy -50.173494 -12.2147)
      (xy -50.327128 -12.409012)
      (xy -50.470885 -12.682023)
      (xy -50.597341 -12.708594)
      (xy -50.691546 -12.838678)
      (xy -50.435176 -13.095935)
      (xy -50.113764 -13.495625)
      (xy -50.113357 -13.762873)
      (xy -50.060662 -14.007576)
      (xy -49.860695 -14.051064)
      (xy -49.573841 -14.165285)
      (xy -49.673129 -14.523936)
      (xy -49.803289 -15.232268)
      (xy -49.454242 -16.005299)
      (xy -49.211017 -16.31133)
      (xy -48.369295 -16.940851)
      (xy -47.409423 -17.151231)
    )

    (stroke (width 0) (type solid)) (fill solid) (layer "F.SilkS") (tstamp 98be4fac-940b-4440-9236-22a115ea8f1b))
  (fp_poly
    (pts
      (xy -32.090077 -17.243357)
      (xy -31.517367 -17.147207)
      (xy -31.287436 -16.895032)
      (xy -31.274157 -16.313986)
      (xy -31.286478 -16.14208)
      (xy -31.283495 -15.439533)
      (xy -31.069853 -15.064967)
      (xy -30.678499 -14.865257)
      (xy -30.162707 -14.581353)
      (xy -29.966596 -14.327965)
      (xy -29.905558 -13.361747)
      (xy -29.980841 -12.807279)
      (xy -30.225323 -12.545877)
      (xy -30.47893 -12.478547)
      (xy -30.957178 -12.286563)
      (xy -31.095143 -12.073228)
      (xy -31.161623 -11.539054)
      (xy -31.208533 -11.266439)
      (xy -31.050995 -10.817103)
      (xy -30.490933 -10.462477)
      (xy -29.665925 -10.278611)
      (xy -29.402515 -10.268085)
      (xy -29.025427 -10.356651)
      (xy -29.092551 -10.605851)
      (xy -29.327537 -11.166187)
      (xy -29.411149 -11.843678)
      (xy -29.328421 -12.392408)
      (xy -29.210736 -12.547739)
      (xy -29.192975 -12.587412)
      (xy -26.999944 -12.587412)
      (xy -26.950264 -12.236942)
      (xy -26.858023 -12.232757)
      (xy -26.793519 -12.594408)
      (xy -26.836691 -12.750665)
      (xy -26.956674 -12.853017)
      (xy -26.999944 -12.587412)
      (xy -29.192975 -12.587412)
      (xy -29.049451 -12.908011)
      (xy -29.088583 -13.113973)
      (xy -29.07202 -13.455684)
      (xy -28.941676 -13.510639)
      (xy -28.668485 -13.725591)
      (xy -28.642553 -13.872585)
      (xy -28.401955 -14.260409)
      (xy -27.795993 -14.604575)
      (xy -26.998418 -14.823802)
      (xy -26.528189 -14.861702)
      (xy -25.698182 -14.618461)
      (xy -25.104858 -13.945032)
      (xy -24.819935 -12.925859)
      (xy -24.813308 -12.842484)
      (xy -24.689403 -12.163857)
      (xy -24.398883 -11.903044)
      (xy -24.263921 -11.889362)
      (xy -23.941792 -12.003555)
      (xy -23.800882 -12.433013)
      (xy -23.778724 -12.970213)
      (xy -23.832779 -13.693774)
      (xy -24.031603 -14.011058)
      (xy -24.251596 -14.059281)
      (xy -24.546244 -14.100728)
      (xy -24.423595 -14.231206)
      (xy -22.337589 -14.231206)
      (xy -22.300497 -14.070565)
      (xy -22.157447 -14.051064)
      (xy -21.935031 -14.149931)
      (xy -21.977305 -14.231206)
      (xy -22.297984 -14.263545)
      (xy -22.337589 -14.231206)
      (xy -24.423595 -14.231206)
      (xy -24.389491 -14.267487)
      (xy -24.184043 -14.397047)
      (xy -23.644351 -14.572009)
      (xy -22.809696 -14.68558)
      (xy -21.850646 -14.734278)
      (xy -20.937766 -14.714625)
      (xy -20.241623 -14.623139)
      (xy -19.945765 -14.483522)
      (xy -19.570757 -14.384832)
      (xy -19.069882 -14.580849)
      (xy -18.382088 -14.809305)
      (xy -17.702018 -14.64206)
      (xy -17.701245 -14.641708)
      (xy -17.252869 -14.337)
      (xy -17.045751 -13.84194)
      (xy -16.991266 -13.178666)
      (xy -16.962755 -12.0702)
      (xy -16.951362 -11.259956)
      (xy -16.956515 -10.506018)
      (xy -16.977639 -9.566472)
      (xy -16.982274 -9.389894)
      (xy -17.018671 -8.51607)
      (xy -17.115077 -8.052541)
      (xy -17.341446 -7.869271)
      (xy -17.767731 -7.83622)
      (xy -17.818096 -7.836171)
      (xy -18.483279 -7.935875)
      (xy -18.844286 -8.301092)
      (xy -18.962773 -9.030982)
      (xy -18.945375 -9.649092)
      (xy -18.955835 -10.352989)
      (xy -19.065903 -10.764489)
      (xy -19.134029 -10.808511)
      (xy -19.340775 -10.579917)
      (xy -19.496557 -10.060555)
      (xy -19.555909 -9.500054)
      (xy -19.473365 -9.148044)
      (xy -19.440416 -9.126277)
      (xy -19.37704 -8.853466)
      (xy -19.479475 -8.444149)
      (xy -19.839871 -7.973223)
      (xy -20.524206 -7.836172)
      (xy -20.527463 -7.836171)
      (xy -20.917714 -7.850306)
      (xy -21.172697 -7.954697)
      (xy -21.317564 -8.242322)
      (xy -21.377468 -8.806158)
      (xy -21.377562 -9.739182)
      (xy -21.349825 -10.876064)
      (xy -21.370327 -11.750703)
      (xy -21.370502 -11.751652)
      (xy -19.449398 -11.751652)
      (xy -19.323079 -11.317328)
      (xy -19.275177 -11.258866)
      (xy -19.02824 -11.098542)
      (xy -18.928143 -11.348277)
      (xy -18.914894 -11.754256)
      (xy -19.007391 -12.262069)
      (xy -19.185106 -12.429788)
      (xy -19.396342 -12.214326)
      (xy -19.449398 -11.751652)
      (xy -21.370502 -11.751652)
      (xy -21.471973 -12.302847)
      (xy -21.582435 -12.429788)
      (xy -21.73582 -12.186664)
      (xy -21.830243 -11.564185)
      (xy -21.845677 -11.059773)
      (xy -21.864361 -10.250502)
      (xy -21.923777 -9.691526)
      (xy -21.97156 -9.553263)
      (xy -22.001429 -9.225219)
      (xy -21.881776 -8.627779)
      (xy -21.881401 -8.626469)
      (xy -21.767678 -8.075038)
      (xy -21.941911 -7.867944)
      (xy -22.378969 -7.840308)
      (xy -23.172572 -7.938643)
      (xy -23.621707 -8.290176)
      (xy -23.805304 -8.996708)
      (xy -23.819552 -9.698281)
      (xy -23.840105 -10.554703)
      (xy -23.969959 -10.979763)
      (xy -24.188906 -11.078724)
      (xy -24.545365 -10.931277)
      (xy -24.589362 -10.808511)
      (xy -24.828846 -10.63827)
      (xy -25.426102 -10.544584)
      (xy -25.654266 -10.538298)
      (xy -26.362457 -10.490375)
      (xy -26.801861 -10.371242)
      (xy -26.847494 -10.330666)
      (xy -26.697185 -10.221811)
      (xy -26.165139 -10.20484)
      (xy -25.94932 -10.220925)
      (xy -25.241549 -10.213612)
      (xy -24.785946 -10.071908)
      (xy -24.740145 -10.023239)
      (xy -24.772399 -9.756779)
      (xy -24.911181 -9.723522)
      (xy -25.126795 -9.670721)
      (xy -24.908227 -9.493234)
      (xy -24.778003 -9.255043)
      (xy -25.040204 -8.877968)
      (xy -25.401831 -8.551627)
      (xy -26.393119 -7.968808)
      (xy -27.372458 -7.837488)
      (xy -28.229207 -8.159051)
      (xy -28.594277 -8.511702)
      (xy -28.997357 -8.951594)
      (xy -29.3103 -9.183831)
      (xy -29.423409 -9.146985)
      (xy -29.318085 -8.917022)
      (xy -29.379342 -8.685692)
      (xy -29.572351 -8.646809)
      (xy -29.940734 -8.4375)
      (xy -29.993617 -8.24149)
      (xy -30.218159 -7.933382)
      (xy -30.825585 -7.874243)
      (xy -31.716598 -8.068991)
      (xy -31.93748 -8.145174)
      (xy -32.463558 -8.473459)
      (xy -32.516549 -8.799373)
      (xy -32.551769 -9.134892)
      (xy -32.695745 -9.187234)
      (xy -32.903046 -9.381878)
      (xy -32.871562 -9.5839)
      (xy -32.8778 -9.72766)
      (xy -29.723404 -9.72766)
      (xy -29.624538 -9.505244)
      (xy -29.543263 -9.547518)
      (xy -29.510923 -9.868197)
      (xy -29.543263 -9.907802)
      (xy -29.703904 -9.87071)
      (xy -29.723404 -9.72766)
      (xy -32.8778 -9.72766)
      (xy -32.890872 -10.0289)
      (xy -33.008639 -10.159357)
      (xy -33.169247 -10.532254)
      (xy -33.174498 -11.239465)
      (xy -33.157656 -11.383968)
      (xy -33.117823 -12.107757)
      (xy -33.269688 -12.408183)
      (xy -33.37878 -12.429788)
      (xy -33.724836 -12.658756)
      (xy -33.9223 -13.214291)
      (xy -33.956293 -13.899334)
      (xy -33.811936 -14.51683)
      (xy -33.559909 -14.828621)
      (xy -33.343124 -15.222335)
      (xy -33.343883 -15.550102)
      (xy -33.327484 -16.223162)
      (xy -33.206104 -16.702931)
      (xy -32.925829 -17.139752)
      (xy -32.422271 -17.262472)
    )

    (stroke (width 0) (type solid)) (fill solid) (layer "F.SilkS") (tstamp f004dbc2-c8b7-4699-9ddb-2547f2a58423))
  (fp_poly
    (pts
      (xy -16.40381 -5.17065)
      (xy -14.890934 -4.895808)
      (xy -13.583163 -4.447952)
      (xy -12.837011 -4.006414)
      (xy -12.413108 -3.624695)
      (xy -12.212093 -3.224867)
      (xy -12.17986 -2.619043)
      (xy -12.234209 -1.913181)
      (xy -12.645171 0.296411)
      (xy -13.417927 2.262448)
      (xy -14.510647 3.906055)
      (xy -15.881499 5.148357)
      (xy -16.031474 5.246971)
      (xy -16.793744 5.690034)
      (xy -17.912894 6.286757)
      (xy -19.253716 6.967399)
      (xy -20.681002 7.662219)
      (xy -21.076596 7.849281)
      (xy -22.383469 8.468518)
      (xy -23.528099 9.021416)
      (xy -24.415097 9.461097)
      (xy -24.949075 9.740683)
      (xy -25.047387 9.800738)
      (xy -25.278493 10.183047)
      (xy -25.52916 10.912354)
      (xy -25.676603 11.514823)
      (xy -25.798387 12.068087)
      (xy -25.946835 12.515187)
      (xy -26.185112 12.908568)
      (xy -26.576382 13.300674)
      (xy -27.183807 13.74395)
      (xy -28.070553 14.290841)
      (xy -29.299782 14.99379)
      (xy -30.934659 15.905242)
      (xy -31.024635 15.955256)
      (xy -32.284278 16.652689)
      (xy -33.154291 17.12133)
      (xy -33.71647 17.396619)
      (xy -34.052612 17.513996)
      (xy -34.244512 17.508899)
      (xy -34.373965 17.416769)
      (xy -34.381222 17.409558)
      (xy -34.365068 17.103094)
      (xy -34.188525 16.41944)
      (xy -34.137709 16.262398)
      (xy -32.991141 16.262398)
      (xy -32.841307 16.282964)
      (xy -32.724084 16.227932)
      (xy -32.28243 15.894662)
      (xy -32.155319 15.662833)
      (xy -31.950967 15.46432)
      (xy -31.817553 15.469681)
      (xy -31.552506 15.312716)
      (xy -31.517317 15.064361)
      (xy -31.436787 14.664644)
      (xy -31.314657 14.591489)
      (xy -31.081256 14.797992)
      (xy -31.074468 14.861702)
      (xy -30.864873 15.118955)
      (xy -30.77274 15.131915)
      (xy -30.58696 14.918055)
      (xy -30.612337 14.591489)
      (xy -30.627491 14.160613)
      (xy -30.508745 14.051064)
      (xy -30.270781 14.257434)
      (xy -30.26383 14.321276)
      (xy -30.054491 14.578902)
      (xy -29.964324 14.591489)
      (xy -29.784842 14.369206)
      (xy -29.834366 13.915957)
      (xy -29.872408 13.403608)
      (xy -29.728552 13.240425)
      (xy -29.481606 13.458045)
      (xy -29.453192 13.629797)
      (xy -29.269652 14.102194)
      (xy -29.154084 14.204028)
      (xy -28.977973 14.165024)
      (xy -29.014583 13.671498)
      (xy -29.047872 13.510638)
      (xy -29.127417 12.919221)
      (xy -28.995419 12.790019)
      (xy -28.941661 12.817248)
      (xy -28.665913 13.226598)
      (xy -28.642553 13.391479)
      (xy -28.479744 13.740531)
      (xy -28.350871 13.780851)
      (xy -28.178777 13.544405)
      (xy -28.216378 12.902659)
      (xy -28.30252 12.352441)
      (xy -28.254689 12.286712)
      (xy -28.061449 12.632447)
      (xy -27.737786 13.093999)
      (xy -27.502201 13.240425)
      (xy -27.373025 13.023222)
      (xy -27.422378 12.632447)
      (xy -27.521515 12.213317)
      (xy -27.408182 12.2598)
      (xy -27.170374 12.548986)
      (xy -26.85904 12.905107)
      (xy -26.759484 12.815854)
      (xy -26.751064 12.481433)
      (xy -26.658559 12.014857)
      (xy -26.51152 11.889361)
      (xy -26.308919 11.654673)
      (xy -26.154553 11.089167)
      (xy -26.153 11.078723)
      (xy -26.150012 10.492344)
      (xy -26.324991 10.277578)
      (xy -26.693174 10.380522)
      (xy -27.424169 10.646919)
      (xy -28.384191 11.027028)
      (xy -28.77766 11.189451)
      (xy -30.939362 12.091831)
      (xy -32.116105 14.312078)
      (xy -32.649437 15.342806)
      (xy -32.93415 15.970962)
      (xy -32.991141 16.262398)
      (xy -34.137709 16.262398)
      (xy -33.886283 15.485395)
      (xy -33.750726 15.104969)
      (xy -33.296293 13.793762)
      (xy -33.050761 12.879832)
      (xy -33.002611 12.267027)
      (xy -33.140323 11.859192)
      (xy -33.336575 11.647948)
      (xy -33.68118 11.527764)
      (xy -34.223857 11.661797)
      (xy -35.080931 12.077244)
      (xy -35.854291 12.441998)
      (xy -36.437405 12.625185)
      (xy -36.659784 12.60901)
      (xy -36.580044 12.343179)
      (xy -36.168543 11.853883)
      (xy -35.593687 11.317297)
      (xy -35.203788 10.974053)
      (xy -32.332647 10.974053)
      (xy -32.290426 11.078723)
      (xy -32.047611 11.336502)
      (xy -32.004266 11.348936)
      (xy -31.888205 11.139875)
      (xy -31.885106 11.078723)
      (xy -32.092833 10.818894)
      (xy -32.171266 10.80851)
      (xy -32.332647 10.974053)
      (xy -35.203788 10.974053)
      (xy -34.903583 10.70977)
      (xy -34.787721 10.574326)
      (xy -31.614894 10.574326)
      (xy -31.514514 11.034011)
      (xy -31.302946 11.241901)
      (xy -31.117252 11.071968)
      (xy -31.191195 10.627428)
      (xy -31.314282 10.460611)
      (xy -31.563174 10.329884)
      (xy -31.614894 10.574326)
      (xy -34.787721 10.574326)
      (xy -34.56189 10.310326)
      (xy -34.541412 10.197094)
      (xy -30.948495 10.197094)
      (xy -30.901972 10.403191)
      (xy -30.641403 10.760646)
      (xy -30.513614 10.80851)
      (xy -30.389803 10.609288)
      (xy -30.436327 10.403191)
      (xy -30.696895 10.045737)
      (xy -30.824685 9.997872)
      (xy -30.948495 10.197094)
      (xy -34.541412 10.197094)
      (xy -34.534255 10.157522)
      (xy -33.23617 10.157522)
      (xy -33.033223 10.139291)
      (xy -32.415631 9.855815)
      (xy -31.370271 9.300357)
      (xy -29.884018 8.466181)
      (xy -29.385638 8.180925)
      (xy -28.236366 7.472082)
      (xy -27.55254 6.926598)
      (xy -27.295599 6.512811)
      (xy -27.291489 6.461457)
      (xy -27.404279 6.035297)
      (xy -27.550132 5.944681)
      (xy -27.840674 6.096064)
      (xy -28.450014 6.500535)
      (xy -29.277573 7.083573)
      (xy -30.222773 7.770659)
      (xy -31.185035 8.487274)
      (xy -32.063781 9.158898)
      (xy -32.758432 9.71101)
      (xy -33.16841 10.069093)
      (xy -33.23617 10.157522)
      (xy -34.534255 10.157522)
      (xy -34.502257 9.980591)
      (xy -34.658333 9.582191)
      (xy -34.711726 9.477972)
      (xy -35.035824 9.011643)
      (xy -35.370091 8.822273)
      (xy -34.046809 8.822273)
      (xy -33.852613 9.134265)
      (xy -33.357321 9.14972)
      (xy -32.691869 8.896763)
      (xy -31.987197 8.403516)
      (xy -31.95266 8.372484)
      (xy -31.41599 7.828544)
      (xy -31.105368 7.405855)
      (xy -31.074468 7.308034)
      (xy -30.874295 7.16188)
      (xy -30.637967 7.209994)
      (xy -30.344113 7.244957)
      (xy -30.348604 6.928604)
      (xy -30.406731 6.73076)
      (xy -30.516288 6.292689)
      (xy -30.374705 6.291365)
      (xy -30.167701 6.452758)
      (xy -29.825295 6.678538)
      (xy -29.725995 6.499083)
      (xy -29.723404 6.391566)
      (xy -29.565676 6.091667)
      (xy -29.273758 6.134187)
      (xy -28.968759 6.172262)
      (xy -29.019493 5.9906)
      (xy -29.05551 5.709009)
      (xy -28.96249 5.674468)
      (xy -28.536146 5.625193)
      (xy -27.890608 5.510568)
      (xy -27.248802 5.472085)
      (xy -26.86608 5.754103)
      (xy -26.749128 5.948299)
      (xy -26.583139 6.439262)
      (xy -26.729217 6.921281)
      (xy -27.009593 7.337732)
      (xy -27.430687 8.187948)
      (xy -27.427774 8.723938)
      (xy -27.337208 9.131801)
      (xy -27.470006 9.060065)
      (xy -27.645053 8.849468)
      (xy -28.077401 8.433269)
      (xy -28.292333 8.479993)
      (xy -28.242975 8.97902)
      (xy -28.241452 8.984574)
      (xy -28.142315 9.403704)
      (xy -28.255648 9.357221)
      (xy -28.493456 9.068035)
      (xy -28.805461 8.718096)
      (xy -28.91325 8.834766)
      (xy -28.934099 9.203141)
      (xy -28.993006 9.577064)
      (xy -29.091723 9.525)
      (xy -29.343413 9.19389)
      (xy -29.535102 9.312534)
      (xy -29.529231 9.795212)
      (xy -29.446365 10.213968)
      (xy -29.560189 10.187905)
      (xy -29.8468 9.862766)
      (xy -30.165351 9.516006)
      (xy -30.218128 9.581826)
      (xy -30.150782 9.817312)
      (xy -30.01715 10.343525)
      (xy -29.993617 10.533952)
      (xy -29.761337 10.624144)
      (xy -29.090321 10.475143)
      (xy -28.019303 10.1009)
      (xy -26.58702 9.515363)
      (xy -24.832205 8.732482)
      (xy -24.284129 8.477841)
      (xy -22.559933 7.660483)
      (xy -21.290662 7.034285)
      (xy -20.434911 6.576599)
      (xy -19.951273 6.26478)
      (xy -19.798341 6.07618)
      (xy -19.816191 6.034163)
      (xy -20.153258 6.031672)
      (xy -20.839213 6.228667)
      (xy -21.744278 6.573762)
      (xy -22.738673 7.015573)
      (xy -23.692618 7.502713)
      (xy -24.059832 7.714393)
      (xy -24.973831 8.240009)
      (xy -25.813922 8.680422)
      (xy -26.292923 8.896938)
      (xy -26.803403 9.05678)
      (xy -26.940272 8.906016)
      (xy -26.851993 8.438919)
      (xy -26.653934 7.763762)
      (xy -26.465218 7.567338)
      (xy -26.222453 7.792869)
      (xy -26.187738 7.843995)
      (xy -26.02904 7.984118)
      (xy -26.036451 7.646872)
      (xy -26.07294 7.430851)
      (xy -26.157477 6.907083)
      (xy -26.10176 6.873237)
      (xy -25.90475 7.228191)
      (xy -25.53825 7.741192)
      (xy -25.288304 7.769605)
      (xy -25.238005 7.331347)
      (xy -25.278155 7.093085)
      (xy -25.362332 6.602877)
      (xy -25.265235 6.578572)
      (xy -25.050855 6.822872)
      (xy -24.633928 7.230679)
      (xy -24.441272 7.229937)
      (xy -24.548788 6.835975)
      (xy -24.601747 6.732176)
      (xy -24.797164 6.210116)
      (xy -24.701117 6.037947)
      (xy -24.368238 6.292282)
      (xy -24.324568 6.34347)
      (xy -23.900677 6.729664)
      (xy -23.707663 6.665899)
      (xy -23.793279 6.210667)
      (xy -23.943857 5.877127)
      (xy -24.223354 5.313413)
      (xy -24.241793 5.163781)
      (xy -23.985791 5.361985)
      (xy -23.861966 5.471808)
      (xy -23.321923 5.873928)
      (xy -23.087467 5.882196)
      (xy -23.200944 5.512355)
      (xy -23.342327 5.278656)
      (xy -23.702326 4.648655)
      (xy -23.735016 4.406199)
      (xy -23.467191 4.584122)
      (xy -23.105432 4.988376)
      (xy -22.648448 5.456803)
      (xy -22.322146 5.630399)
      (xy -22.274285 5.611164)
      (xy -22.336085 5.32663)
      (xy -22.676647 4.768263)
      (xy -23.111139 4.196245)
      (xy -23.627777 3.516924)
      (xy -23.938459 3.011026)
      (xy -23.982229 2.815562)
      (xy -23.75134 2.929039)
      (xy -23.296714 3.368693)
      (xy -22.825031 3.910137)
      (xy -22.271542 4.550209)
      (xy -21.862465 4.95754)
      (xy -21.706761 5.04364)
      (xy -21.790897 4.784892)
      (xy -22.113209 4.212438)
      (xy -22.555573 3.523455)
      (xy -23.053895 2.740132)
      (xy -23.398796 2.116135)
      (xy -23.508511 1.8193)
      (xy -23.464698 1.653357)
      (xy -23.298193 1.764267)
      (xy -22.956391 2.21102)
      (xy -22.386689 3.052607)
      (xy -22.323331 3.148383)
      (xy -21.793026 3.873181)
      (xy -21.319281 4.389908)
      (xy -21.092444 4.54746)
      (xy -20.933639 4.477561)
      (xy -21.130704 4.03772)
      (xy -21.309337 3.755178)
      (xy -21.813056 2.957922)
      (xy -22.393726 1.990992)
      (xy -22.644553 1.557616)
      (xy -23.157299 0.801364)
      (xy -23.631534 0.348935)
      (xy -23.836874 0.274106)
      (xy -24.307036 0.441128)
      (xy -24.960255 0.86788)
      (xy -25.264567 1.116811)
      (xy -25.955549 1.662168)
      (xy -26.307128 1.815037)
      (xy -26.310788 1.610214)
      (xy -25.958016 1.082494)
      (xy -25.424497 0.463193)
      (xy -24.709784 -0.34068)
      (xy -24.36453 -0.789559)
      (xy -24.361849 -0.895836)
      (xy -24.674859 -0.671905)
      (xy -25.276675 -0.130158)
      (xy -26.140413 0.717012)
      (xy -26.278192 0.856723)
      (xy -27.231836 1.815993)
      (xy -28.431289 3.005776)
      (xy -29.731677 4.283183)
      (xy -30.988129 5.505325)
      (xy -31.142021 5.653982)
      (xy -32.161449 6.661135)
      (xy -33.024476 7.558254)
      (xy -33.662333 8.270331)
      (xy -34.006249 8.722356)
      (xy -34.046809 8.822273)
      (xy -35.370091 8.822273)
      (xy -35.510716 8.742606)
      (xy -36.313194 8.581094)
      (xy -36.532935 8.553269)
      (xy -37.548207 8.451336)
      (xy -38.494484 8.388423)
      (xy -38.843085 8.378944)
      (xy -39.441014 8.3162)
      (xy -39.718809 8.16654)
      (xy -39.721277 8.149486)
      (xy -39.525987 7.89143)
      (xy -39.107532 7.482926)
      (xy -37.91244 7.482926)
      (xy -37.593042 7.560098)
      (xy -36.957621 7.536873)
      (xy -36.625247 7.51058)
      (xy -35.723111 7.385599)
      (xy -35.102361 7.201951)
      (xy -34.910593 7.049862)
      (xy -34.69104 6.916927)
      (xy -34.243179 7.211673)
      (xy -33.856302 7.529606)
      (xy -33.77871 7.485039)
      (xy -33.865884 7.228191)
      (xy -34.150726 6.445539)
      (xy -34.219659 6.114124)
      (xy -34.069104 6.188221)
      (xy -33.807758 6.485106)
      (xy -33.424072 6.892775)
      (xy -33.263136 6.879094)
      (xy -33.242179 6.703713)
      (xy -33.378143 6.215269)
      (xy -33.506383 6.079787)
      (xy -33.740473 5.694337)
      (xy -33.770587 5.455861)
      (xy -33.699535 5.223956)
      (xy -33.447129 5.397402)
      (xy -33.205009 5.674468)
      (xy -32.848473 6.073472)
      (xy -32.761259 6.055732)
      (xy -32.83162 5.809574)
      (xy -33.051614 5.160283)
      (xy -33.149604 4.863829)
      (xy -33.09436 4.75656)
      (xy -32.787229 5.020377)
      (xy -32.718362 5.096424)
      (xy -32.294692 5.51086)
      (xy -32.167612 5.477029)
      (xy -32.351186 5.007359)
      (xy -32.435039 4.846065)
      (xy -32.553193 4.422414)
      (xy -32.37818 4.32964)
      (xy -32.05432 4.581345)
      (xy -31.90675 4.796276)
      (xy -31.703067 5.074206)
      (xy -31.620594 4.884855)
      (xy -31.601778 4.593617)
      (xy -31.537892 4.209943)
      (xy -31.435937 4.255851)
      (xy -31.144541 4.568974)
      (xy -31.036003 4.593617)
      (xy -30.895649 4.426741)
      (xy -30.939362 4.323404)
      (xy -30.881135 4.089613)
      (xy -30.701043 4.053191)
      (xy -30.220744 3.874218)
      (xy -30.108619 3.750449)
      (xy -30.180197 3.590776)
      (xy -30.68447 3.524736)
      (xy -31.66948 3.546804)
      (xy -31.81221 3.55454)
      (xy -32.728631 3.621046)
      (xy -33.397513 3.744629)
      (xy -33.982188 3.996944)
      (xy -34.645988 4.449646)
      (xy -35.552247 5.17439)
      (xy -35.607434 5.219528)
      (xy -36.763312 6.173658)
      (xy -37.518694 6.837244)
      (xy -37.894697 7.257821)
      (xy -37.91244 7.482926)
      (xy -39.107532 7.482926)
      (xy -38.999533 7.377495)
      (xy -38.231037 6.691536)
      (xy -37.627128 6.179137)
      (xy -36.293042 5.072896)
      (xy -35.280392 4.261986)
      (xy -34.494782 3.696567)
      (xy -33.841812 3.326799)
      (xy -33.227086 3.102842)
      (xy -32.556207 2.974857)
      (xy -31.734776 2.893005)
      (xy -31.344681 2.862156)
      (xy -29.047872 2.682477)
      (xy -26.88617 0.568881)
      (xy -25.330716 -0.904955)
      (xy -23.819348 -2.249725)
      (xy -23.132414 -2.818744)
      (xy -19.995745 -2.818744)
      (xy -19.862884 -2.321283)
      (xy -19.514037 -1.517882)
      (xy -19.02381 -0.558253)
      (xy -18.466806 0.407892)
      (xy -18.11981 0.945744)
      (xy -17.731005 1.459631)
      (xy -17.586979 1.521311)
      (xy -17.688172 1.160612)
      (xy -18.03502 0.407362)
      (xy -18.109747 0.259448)
      (xy -18.381079 -0.376071)
      (xy -18.442739 -0.759485)
      (xy -18.386899 -0.810639)
      (xy -18.09102 -0.594257)
      (xy -17.734775 -0.068232)
      (xy -17.707797 -0.017135)
      (xy -17.322978 0.596883)
      (xy -16.964379 0.976409)
      (xy -16.957773 0.980479)
      (xy -16.790008 1.021653)
      (xy -16.988937 0.727401)
      (xy -17.173709 0.364074)
      (xy -17.00222 0.286312)
      (xy -16.593846 0.52311)
      (xy -16.497252 0.607978)
      (xy -16.245022 0.787602)
      (xy -16.281112 0.530044)
      (xy -16.311167 0.442786)
      (xy -16.35902 0.082104)
      (xy -16.070495 0.100465)
      (xy -15.63134 0.044269)
      (xy -15.498096 -0.139662)
      (xy -15.235757 -0.477185)
      (xy -14.954617 -0.512211)
      (xy -14.861702 -0.297367)
      (xy -15.002577 0.040353)
      (xy -15.368638 0.672406)
      (xy -15.789174 1.32391)
      (xy -16.24332 2.038173)
      (xy -16.508364 2.534775)
      (xy -16.532259 2.69799)
      (xy -16.025179 2.451762)
      (xy -15.418643 1.806959)
      (xy -14.790927 0.875371)
      (xy -14.220308 -0.231212)
      (xy -13.886286 -1.080851)
      (xy -13.604872 -1.871077)
      (xy -13.436991 -2.195258)
      (xy -13.340916 -2.104991)
      (xy -13.293028 -1.814426)
      (xy -13.33037 -1.214241)
      (xy -13.507833 -0.341751)
      (xy -13.776162 0.639013)
      (xy -14.086106 1.564023)
      (xy -14.388411 2.269248)
      (xy -14.612543 2.580033)
      (xy -14.84529 2.959906)
      (xy -14.852712 3.05584)
      (xy -14.749253 3.233145)
      (xy -14.498476 3.003944)
      (xy -14.155253 2.462909)
      (xy -13.774452 1.704714)
      (xy -13.410941 0.824031)
      (xy -13.203842 0.210813)
      (xy -12.631042 -1.675008)
      (xy -13.216113 -2.8465)
      (xy -13.640368 -3.546832)
      (xy -14.166208 -4.029178)
      (xy -14.919043 -4.360023)
      (xy -16.024284 -4.605854)
      (xy -16.744597 -4.717148)
      (xy -17.95196 -4.889072)
      (xy -17.352576 -4.251057)
      (xy -16.917604 -3.591527)
      (xy -16.750035 -2.921676)
      (xy -16.855355 -2.394475)
      (xy -17.239047 -2.162891)
      (xy -17.27767 -2.161702)
      (xy -17.791058 -2.280081)
      (xy -17.961855 -2.420114)
      (xy -18.314591 -2.572546)
      (xy -18.490896 -2.536799)
      (xy -18.906004 -2.566679)
      (xy -19.098506 -2.872794)
      (xy -18.940072 -3.223095)
      (xy -18.889784 -3.258072)
      (xy -18.634679 -3.528191)
      (xy -18.780493 -3.674373)
      (xy -19.190704 -3.629392)
      (xy -19.432177 -3.525152)
      (xy -19.874335 -3.133983)
      (xy -19.995745 -2.818744)
      (xy -23.132414 -2.818744)
      (xy -22.434822 -3.396592)
      (xy -21.495683 -4.100088)
      (xy -20.14139 -4.100088)
      (xy -19.654553 -4.157915)
      (xy -19.590426 -4.172532)
      (xy -18.923741 -4.391798)
      (xy -18.509575 -4.631859)
      (xy -18.499036 -4.785402)
      (xy -18.985873 -4.727576)
      (xy -19.05 -4.712958)
      (xy -19.716685 -4.493692)
      (xy -20.130851 -4.253631)
      (xy -20.14139 -4.100088)
      (xy -21.495683 -4.100088)
      (xy -21.259894 -4.276714)
      (xy -20.453588 -4.781999)
      (xy -19.357085 -5.131254)
      (xy -17.949843 -5.254968)
    )

    (stroke (width 0) (type solid)) (fill solid) (layer "F.SilkS") (tstamp f5fb121d-262c-4a54-9be8-95470991f0b8))
  (fp_poly
    (pts
      (xy 49.517409 -12.551172)
      (xy 50.535544 -12.496935)
      (xy 51.2909 -12.382388)
      (xy 51.922102 -12.187759)
      (xy 52.471651 -11.9411)
      (xy 54.035662 -10.876503)
      (xy 55.4077 -9.33126)
      (xy 56.547587 -7.359364)
      (xy 56.968011 -6.372607)
      (xy 57.236496 -5.461562)
      (xy 57.39696 -4.42391)
      (xy 57.49332 -3.057332)
      (xy 57.496764 -2.986702)
      (xy 57.530858 -1.480166)
      (xy 57.437081 -0.365337)
      (xy 57.174103 0.499528)
      (xy 56.700591 1.256174)
      (xy 56.051141 1.970909)
      (xy 55.587997 2.464202)
      (xy 55.480445 2.752525)
      (xy 55.694442 3.005403)
      (xy 55.823392 3.105103)
      (xy 56.288387 3.412167)
      (xy 56.509239 3.504172)
      (xy 56.720573 3.731821)
      (xy 56.991882 4.26786)
      (xy 56.994313 4.273719)
      (xy 57.13309 5.254393)
      (xy 56.778932 6.218538)
      (xy 55.976885 7.098268)
      (xy 54.771994 7.825699)
      (xy 54.582979 7.90768)
      (xy 53.85689 8.298958)
      (xy 52.957617 8.903744)
      (xy 52.291907 9.419103)
      (xy 51.155699 10.21583)
      (xy 50.114387 10.668827)
      (xy 49.256282 10.74961)
      (xy 48.78697 10.549556)
      (xy 48.523585 10.449325)
      (xy 48.230691 10.656093)
      (xy 47.827024 11.244576)
      (xy 47.589433 11.650594)
      (xy 47.178691 12.431867)
      (xy 46.932359 13.024486)
      (xy 46.898789 13.267728)
      (xy 47.219365 13.433307)
      (xy 47.867435 13.603228)
      (xy 48.083733 13.643356)
      (xy 49.017443 13.91659)
      (xy 49.58607 14.428309)
      (xy 49.898752 15.300745)
      (xy 49.974303 15.760763)
      (xy 50.121098 16.492719)
      (xy 50.385638 16.854865)
      (xy 50.894934 17.017735)
      (xy 50.912814 17.020888)
      (xy 51.577184 17.234498)
      (xy 51.755771 17.584055)
      (xy 51.449131 18.107888)
      (xy 50.935905 18.607732)
      (xy 49.943141 19.259284)
      (xy 48.969059 19.397866)
      (xy 47.907903 19.0318)
      (xy 47.625955 18.868192)
      (xy 47.033206 18.406906)
      (xy 46.863157 17.95959)
      (xy 46.894919 17.742173)
      (xy 46.874151 17.03476)
      (xy 46.397105 16.468927)
      (xy 45.433083 16.018215)
      (xy 44.64129 15.799725)
      (xy 43.537631 15.493843)
      (xy 42.471166 15.120184)
      (xy 41.885237 14.862854)
      (xy 41.224493 14.53497)
      (xy 40.801736 14.342491)
      (xy 40.735861 14.321276)
      (xy 40.572804 14.538987)
      (xy 40.234941 15.106483)
      (xy 39.846905 15.806502)
      (xy 39.365658 16.591012)
      (xy 38.917537 17.1417)
      (xy 38.640425 17.324687)
      (xy 37.728639 17.260933)
      (xy 36.972397 16.821835)
      (xy 36.824756 16.690442)
      (xy 36.225045 16.134095)
      (xy 35.963233 16.822714)
      (xy 35.604271 17.501213)
      (xy 35.179822 17.66599)
      (xy 34.591885 17.342769)
      (xy 34.445291 17.221171)
      (xy 33.990141 16.730523)
      (xy 33.777955 16.149069)
      (xy 33.727493 15.258268)
      (xy 33.707577 14.776384)
      (xy 34.590924 14.776384)
      (xy 34.659913 15.642918)
      (xy 34.828619 16.347692)
      (xy 35.052639 16.727167)
      (xy 35.127659 16.753191)
      (xy 35.349238 16.526955)
      (xy 35.497774 16.145212)
      (xy 35.615862 15.438367)
      (xy 35.660436 14.598248)
      (xy 35.65999 14.583389)
      (xy 36.277691 14.583389)
      (xy 36.703566 15.162666)
      (xy 37.262837 15.651332)
      (xy 38.139561 16.206693)
      (xy 38.778065 16.284494)
      (xy 39.196567 15.882881)
      (xy 39.343405 15.439876)
      (xy 39.643594 14.241994)
      (xy 39.936345 13.491297)
      (xy 40.2738 13.097839)
      (xy 40.708098 12.971672)
      (xy 40.775042 12.970212)
      (xy 41.235872 13.160964)
      (xy 41.797411 13.631052)
      (xy 41.899845 13.742461)
      (xy 42.435108 14.226502)
      (xy 43.105631 14.519351)
      (xy 44.107408 14.704228)
      (xy 44.189273 14.714566)
      (xy 45.891453 15.033388)
      (xy 47.089875 15.503733)
      (xy 47.776453 16.122313)
      (xy 47.815417 16.18989)
      (xy 48.259648 16.622101)
      (xy 48.826608 16.746575)
      (xy 49.285969 16.52089)
      (xy 49.323321 16.467621)
      (xy 49.453602 15.817316)
      (xy 49.103569 15.178071)
      (xy 48.329038 14.628928)
      (xy 47.895723 14.446013)
      (xy 46.949452 14.095003)
      (xy 46.072045 13.75133)
      (xy 45.801064 13.638925)
      (xy 45.276757 13.446351)
      (xy 44.399262 13.155953)
      (xy 43.286479 12.803447)
      (xy 42.056311 12.42455)
      (xy 40.826657 12.054978)
      (xy 39.715419 11.730447)
      (xy 39.208667 11.589254)
      (xy 44.106879 11.589254)
      (xy 44.818865 11.698821)
      (xy 45.468344 11.796688)
      (xy 45.832087 11.848875)
      (xy 46.034667 11.625966)
      (xy 46.373792 10.987617)
      (xy 46.804875 10.027555)
      (xy 47.28333 8.839507)
      (xy 47.342838 8.683049)
      (xy 48.498412 8.683049)
      (xy 48.751585 9.326591)
      (xy 48.772454 9.358813)
      (xy 49.093618 9.820032)
      (xy 49.252506 9.997966)
      (xy 49.284805 9.756341)
      (xy 49.295871 9.144988)
      (xy 49.293369 8.896065)
      (xy 49.989362 8.896065)
      (xy 50.167734 9.546334)
      (xy 50.635608 9.768567)
      (xy 51.217007 9.560047)
      (xy 51.831401 9.157481)
      (xy 51.248147 8.548335)
      (xy 50.674239 8.170484)
      (xy 50.217019 8.253101)
      (xy 49.995148 8.763407)
      (xy 49.989362 8.896065)
      (xy 49.293369 8.896065)
      (xy 49.292232 8.782929)
      (xy 49.226987 7.85347)
      (xy 49.079963 7.425638)
      (xy 48.86152 7.512316)
      (xy 48.638679 7.970274)
      (xy 48.498412 8.683049)
      (xy 47.342838 8.683049)
      (xy 47.361882 8.63298)
      (xy 48.350352 6.012975)
      (xy 49.360522 6.012975)
      (xy 49.500838 6.776658)
      (xy 49.577336 6.95587)
      (xy 49.903468 7.458799)
      (xy 50.267073 7.478562)
      (xy 50.456544 7.302961)
      (xy 51.530534 7.302961)
      (xy 51.679246 7.743733)
      (xy 52.140845 8.268988)
      (xy 52.733519 8.324225)
      (xy 53.231915 7.971276)
      (xy 53.42547 7.650172)
      (xy 53.196924 7.566124)
      (xy 53.171774 7.565957)
      (xy 52.705585 7.37961)
      (xy 52.280391 7.019145)
      (xy 51.83065 6.70406)
      (xy 51.555475 6.829068)
      (xy 51.530534 7.302961)
      (xy 50.456544 7.302961)
      (xy 50.766898 7.015327)
      (xy 50.81525 6.957978)
      (xy 51.286466 6.214303)
      (xy 51.282449 5.700316)
      (xy 51.055464 5.573879)
      (xy 52.3868 5.573879)
      (xy 52.585632 5.814039)
      (xy 53.093885 6.187199)
      (xy 53.737296 6.585295)
      (xy 54.341604 6.900265)
      (xy 54.725514 7.024147)
      (xy 55.137629 6.882275)
      (xy 55.603706 6.60489)
      (xy 56.056734 6.10161)
      (xy 56.204255 5.645727)
      (xy 56.0881 5.040399)
      (xy 55.805955 4.353138)
      (xy 55.4573 3.779428)
      (xy 55.141616 3.51475)
      (xy 55.118803 3.512766)
      (xy 54.773627 3.66639)
      (xy 54.184138 4.050869)
      (xy 53.502225 4.551611)
      (xy 52.879779 5.054027)
      (xy 52.46869 5.443524)
      (xy 52.3868 5.573879)
      (xy 51.055464 5.573879)
      (xy 50.808425 5.436271)
      (xy 50.414494 5.404255)
      (xy 49.664741 5.556126)
      (xy 49.360522 6.012975)
      (xy 48.350352 6.012975)
      (xy 48.590442 5.376599)
      (xy 46.198336 5.539361)
      (xy 45.152607 8.564308)
      (xy 44.106879 11.589254)
      (xy 39.208667 11.589254)
      (xy 38.840497 11.486673)
      (xy 38.319792 11.359373)
      (xy 38.241714 11.348936)
      (xy 38.210899 11.514562)
      (xy 38.365392 11.748447)
      (xy 38.497203 12.278068)
      (xy 38.27666 12.929934)
      (xy 37.808724 13.538328)
      (xy 37.198356 13.937533)
      (xy 36.938382 14.001458)
      (xy 36.355899 14.195994)
      (xy 36.277691 14.583389)
      (xy 35.65999 14.583389)
      (xy 35.636312 13.794086)
      (xy 35.54831 13.19511)
      (xy 35.407379 12.970212)
      (xy 35.048123 13.209885)
      (xy 34.750616 13.807527)
      (xy 34.597159 14.581069)
      (xy 34.590924 14.776384)
      (xy 33.707577 14.776384)
      (xy 33.692845 14.419926)
      (xy 33.520818 13.913618)
      (xy 33.118127 13.532754)
      (xy 32.875695 13.37188)
      (xy 32.170184 12.692828)
      (xy 31.933334 11.821632)
      (xy 32.154837 10.70749)
      (xy 32.190116 10.616658)
      (xy 33.093144 10.616658)
      (xy 33.107996 11.612329)
      (xy 33.496881 12.314722)
      (xy 34.146868 12.664928)
      (xy 34.945031 12.604039)
      (xy 35.778441 12.073146)
      (xy 35.815474 12.03675)
      (xy 36.356165 11.206197)
      (xy 36.457039 10.351282)
      (xy 36.163336 9.600084)
      (xy 35.520295 9.080679)
      (xy 34.713547 8.917021)
      (xy 33.958277 9.024705)
      (xy 33.480958 9.418878)
      (xy 33.179885 10.206218)
      (xy 33.093144 10.616658)
      (xy 32.190116 10.616658)
      (xy 32.273206 10.402724)
      (xy 32.542736 9.147799)
      (xy 32.323843 8.171031)
      (xy 33.017017 8.171031)
      (xy 33.038574 8.475671)
      (xy 33.357394 8.542039)
      (xy 33.824895 8.473065)
      (xy 34.512846 8.294551)
      (xy 34.956999 8.090739)
      (xy 34.970184 8.079509)
      (xy 35.006201 7.835238)
      (xy 34.650707 7.65222)
      (xy 34.052593 7.58663)
      (xy 33.731454 7.612142)
      (xy 33.208072 7.860336)
      (xy 33.017017 8.171031)
      (xy 32.323843 8.171031)
      (xy 32.275534 7.955463)
      (xy 31.979898 7.43828)
      (xy 31.614083 6.506738)
      (xy 31.663209 6.231338)
      (xy 32.852093 6.231338)
      (xy 32.888011 6.486434)
      (xy 33.090947 6.865626)
      (xy 33.313751 6.785823)
      (xy 33.790453 6.662054)
      (xy 34.088204 6.777473)
      (xy 34.494306 6.899888)
      (xy 34.500776 6.878204)
      (xy 35.397872 6.878204)
      (xy 35.532555 7.2618)
      (xy 35.865186 7.904443)
      (xy 36.288637 8.619095)
      (xy 36.695782 9.218721)
      (xy 36.839223 9.394686)
      (xy 37.39257 10.007457)
      (xy 36.807872 11.391395)
      (xy 36.509782 12.192281)
      (xy 36.359051 12.794661)
      (xy 36.366896 13.007879)
      (xy 36.767033 13.23107)
      (xy 37.29256 13.078452)
      (xy 37.542001 12.85628)
      (xy 37.719901 12.421926)
      (xy 37.513552 11.916081)
      (xy 37.314245 11.426313)
      (xy 37.439865 10.915857)
      (xy 37.605251 10.611396)
      (xy 37.936755 9.906814)
      (xy 37.947443 9.877969)
      (xy 39.458856 9.877969)
      (xy 39.484612 10.088965)
      (xy 39.856558 10.227304)
      (xy 40.575506 10.426606)
      (xy 41.458215 10.643408)
      (xy 42.321446 10.834248)
      (xy 42.981961 10.955664)
      (xy 43.22497 10.976131)
      (xy 43.505453 10.69484)
      (xy 43.880065 9.911788)
      (xy 44.336223 8.654999)
      (xy 44.513532 8.106113)
      (xy 44.850916 6.959966)
      (xy 45.08298 6.020315)
      (xy 45.186172 5.394325)
      (xy 45.15472 5.188807)
      (xy 44.819746 5.000591)
      (xy 44.182875 4.587585)
      (xy 43.381935 4.039173)
      (xy 43.381287 4.038719)
      (xy 42.6044 3.506111)
      (xy 42.015187 3.123833)
      (xy 41.737996 2.972471)
      (xy 41.735873 2.97234)
      (xy 41.647824 3.206797)
      (xy 41.612766 3.746538)
      (xy 41.443847 4.51351)
      (xy 41.051306 5.234516)
      (xy 40.783625 5.715542)
      (xy 40.457332 6.49815)
      (xy 40.117067 7.44402)
      (xy 39.807471 8.414828)
      (xy 39.573187 9.272251)
      (xy 39.458856 9.877969)
      (xy 37.947443 9.877969)
      (xy 38.295957 8.937435)
      (xy 38.619595 7.902453)
      (xy 38.844408 7.001063)
      (xy 38.910638 6.501061)
      (xy 38.700828 6.043398)
      (xy 38.326256 5.709725)
      (xy 37.845985 5.495622)
      (xy 37.49437 5.680997)
      (xy 37.312958 5.898557)
      (xy 36.721231 6.385563)
      (xy 36.140957 6.633124)
      (xy 35.606004 6.783053)
      (xy 35.397872 6.878204)
      (xy 34.500776 6.878204)
      (xy 34.551821 6.70714)
      (xy 34.265035 6.293383)
      (xy 34.056873 6.088895)
      (xy 33.478769 5.759956)
      (xy 33.031184 5.82308)
      (xy 32.852093 6.231338)
      (xy 31.663209 6.231338)
      (xy 31.775016 5.604547)
      (xy 32.051899 5.272816)
      (xy 33.048002 5.272816)
      (xy 33.299985 5.391465)
      (xy 33.554361 5.404255)
      (xy 34.216135 5.553079)
      (xy 34.587234 5.809574)
      (xy 35.070252 6.183619)
      (xy 35.446212 6.040251)
      (xy 35.571689 5.806133)
      (xy 35.548526 5.273138)
      (xy 35.395016 4.995495)
      (xy 35.225328 4.660297)
      (xy 35.349464 4.593617)
      (xy 35.709159 4.793177)
      (xy 36.02987 5.153888)
      (xy 36.395714 5.478978)
      (xy 36.62178 5.382154)
      (xy 36.609176 4.980376)
      (xy 36.453214 4.653182)
      (xy 36.221935 4.370129)
      (xy 35.899399 4.279963)
      (xy 35.322608 4.368371)
      (xy 34.770437 4.505388)
      (xy 33.834325 4.79201)
      (xy 33.243148 5.060408)
      (xy 33.048002 5.272816)
      (xy 32.051899 5.272816)
      (xy 32.450131 4.795698)
      (xy 32.50763 4.750835)
      (xy 33.439364 4.166171)
      (xy 36.843986 4.166171)
      (xy 36.98126 4.675691)
      (xy 37.212911 5.068268)
      (xy 37.339086 5.134042)
      (xy 37.468868 4.919141)
      (xy 37.409109 4.526064)
      (xy 37.180329 3.914962)
      (xy 37.018108 3.782978)
      (xy 38.1 3.782978)
      (xy 38.217965 4.441936)
      (xy 38.424255 4.809787)
      (xy 39.009483 5.080807)
      (xy 39.771006 5.101468)
      (xy 40.406184 4.871769)
      (xy 40.477872 4.809787)
      (xy 40.727561 4.304507)
      (xy 40.802128 3.782978)
      (xy 40.607415 2.958648)
      (xy 40.028267 2.513903)
      (xy 39.451064 2.431915)
      (xy 38.626733 2.626627)
      (xy 38.181988 3.205775)
      (xy 38.1 3.782978)
      (xy 37.018108 3.782978)
      (xy 36.987476 3.758056)
      (xy 36.89476 3.817296)
      (xy 36.843986 4.166171)
      (xy 33.439364 4.166171)
      (xy 33.784109 3.949843)
      (xy 35.096952 3.421308)
      (xy 36.199832 3.242553)
      (xy 36.830629 3.135538)
      (xy 37.019149 2.810539)
      (xy 37.204758 2.36068)
      (xy 37.665602 1.78237)
      (xy 37.815416 1.634701)
      (xy 38.611683 0.890876)
      (xy 38.200941 -0.432754)
      (xy 37.853939 -2.424036)
      (xy 37.960224 -4.068327)
      (xy 39.495662 -4.068327)
      (xy 39.502527 -2.364393)
      (xy 39.943947 -0.769594)
      (xy 40.360297 -0.006706)
      (xy 40.809468 0.615438)
      (xy 41.139897 0.969835)
      (xy 41.239855 1.003407)
      (xy 41.253803 0.690436)
      (xy 41.146576 0.037034)
      (xy 41.048648 -0.387468)
      (xy 40.961715 -1.155232)
      (xy 41.750098 -1.155232)
      (xy 42.018207 0.31454)
      (xy 42.45839 1.247175)
      (xy 43.248427 2.106399)
      (xy 44.406693 2.952185)
      (xy 45.767738 3.685987)
      (xy 47.16611 4.209259)
      (xy 47.620155 4.321597)
      (xy 48.938992 4.46192)
      (xy 50.420382 4.413693)
      (xy 51.787118 4.193669)
      (xy 52.303108 4.038601)
      (xy 52.999958 3.624031)
      (xy 53.671671 2.988853)
      (xy 53.753644 2.886608)
      (xy 54.410479 2.026595)
      (xy 53.398722 2.97234)
      (xy 52.860228 3.449963)
      (xy 52.401047 3.729656)
      (xy 51.851383 3.861662)
      (xy 51.041438 3.896225)
      (xy 50.296646 3.890259)
      (xy 48.105977 3.682743)
      (xy 46.202799 3.13928)
      (xy 44.642957 2.286016)
      (xy 44.222229 1.873896)
      (xy 54.379016 1.873896)
      (xy 54.415978 1.891489)
      (xy 54.66257 1.701265)
      (xy 54.718085 1.621276)
      (xy 54.786941 1.368657)
      (xy 54.749979 1.351064)
      (xy 54.503387 1.541288)
      (xy 54.447872 1.621276)
      (xy 54.379016 1.873896)
      (xy 44.222229 1.873896)
      (xy 43.482293 1.149098)
      (xy 43.085133 0.513733)
      (xy 42.821544 -0.29582)
      (xy 42.711563 -1.298436)
      (xy 42.739791 -2.359567)
      (xy 42.89083 -3.344663)
      (xy 43.149284 -4.119177)
      (xy 43.499755 -4.548559)
      (xy 43.669613 -4.593617)
      (xy 44.060285 -4.432069)
      (xy 44.717874 -4.008379)
      (xy 45.500587 -3.413982)
      (xy 45.506715 -3.408993)
      (xy 46.627951 -2.622817)
      (xy 47.934943 -1.968355)
      (xy 49.527201 -1.407818)
      (xy 51.504237 -0.90342)
      (xy 52.826596 -0.629437)
      (xy 53.902041 -0.416435)
      (xy 54.755023 -0.240247)
      (xy 55.262326 -0.126678)
      (xy 55.347956 -0.101372)
      (xy 55.307534 0.144925)
      (xy 55.13579 0.517282)
      (xy 54.955636 0.946463)
      (xy 54.974239 1.080851)
      (xy 55.163318 0.86094)
      (xy 55.499148 0.29592)
      (xy 55.761688 -0.20266)
      (xy 56.363274 -1.714826)
      (xy 56.6651 -3.199798)
      (xy 56.632774 -4.481668)
      (xy 56.615184 -4.568076)
      (xy 56.488749 -4.995578)
      (xy 56.256196 -5.251706)
      (xy 55.785261 -5.401324)
      (xy 54.943679 -5.509292)
      (xy 54.633382 -5.539947)
      (xy 52.430134 -5.868967)
      (xy 50.580173 -6.417888)
      (xy 48.923788 -7.236627)
      (xy 48.638298 -7.413678)
      (xy 47.541808 -8.049277)
      (xy 46.772103 -8.328898)
      (xy 46.263122 -8.267687)
      (xy 46.01715 -8.014663)
      (xy 45.688017 -7.69028)
      (xy 45.040523 -7.198395)
      (xy 44.27861 -6.686958)
      (xy 43.355083 -6.038157)
      (xy 42.768053 -5.42485)
      (xy 42.358075 -4.667829)
      (xy 42.256581 -4.414317)
      (xy 41.82777 -2.781632)
      (xy 41.750098 -1.155232)
      (xy 40.961715 -1.155232)
      (xy 40.831581 -2.304536)
      (xy 41.142443 -4.177301)
      (xy 41.968784 -5.968583)
      (xy 43.298153 -7.6412)
      (xy 43.565536 -7.903724)
      (xy 44.391087 -8.608614)
      (xy 45.158276 -9.032846)
      (xy 45.975908 -9.179834)
      (xy 46.952788 -9.052994)
      (xy 48.197722 -8.655743)
      (xy 49.583909 -8.092667)
      (xy 50.971119 -7.539956)
      (xy 52.317638 -7.074317)
      (xy 53.522821 -6.723364)
      (xy 54.486022 -6.514716)
      (xy 55.106594 -6.475989)
      (xy 55.262778 -6.53441)
      (xy 55.341751 -6.962038)
      (xy 55.123172 -7.659566)
      (xy 54.662728 -8.487893)
      (xy 54.266729 -9.022547)
      (xy 53.357122 -9.96253)
      (xy 52.368027 -10.603493)
      (xy 51.176516 -10.991979)
      (xy 49.659656 -11.174532)
      (xy 48.503191 -11.204706)
      (xy 46.722897 -11.13558)
      (xy 45.295874 -10.874859)
      (xy 44.050207 -10.358391)
      (xy 42.813985 -9.522025)
      (xy 41.89 -8.736912)
      (xy 40.708638 -7.36439)
      (xy 39.904112 -5.771594)
      (xy 39.495662 -4.068327)
      (xy 37.960224 -4.068327)
      (xy 37.985894 -4.465458)
      (xy 38.554379 -6.464968)
      (xy 39.516969 -8.33051)
      (xy 40.831237 -9.970031)
      (xy 42.454756 -11.291476)
      (xy 43.462269 -11.848463)
      (xy 44.191586 -12.165851)
      (xy 44.857154 -12.373375)
      (xy 45.606521 -12.493839)
      (xy 46.587233 -12.550044)
      (xy 47.946839 -12.564794)
      (xy 48.097872 -12.564867)
    )

    (stroke (width 0) (type solid)) (fill solid) (layer "F.SilkS") (tstamp 3595c6b6-63c0-4b8b-a944-abe6e2927fae))
)
