(kicad_symbol_lib (version 20211014) (generator kicad_symbol_editor)
  (symbol "TC2030-IDC" (pin_names (offset 1.016) hide) (in_bom yes) (on_board yes)
    (property "Reference" "TC" (id 0) (at -3.81 5.842 0)
      (effects (font (size 1.27 1.27)) (justify left bottom))
    )
    (property "Value" "TC2030-IDC" (id 1) (at -3.81 -7.62 0)
      (effects (font (size 1.27 1.27)) (justify left bottom))
    )
    (property "Footprint" "" (id 2) (at 0 0 0)
      (effects (font (size 1.27 1.27)) hide)
    )
    (property "Datasheet" "" (id 3) (at 0 0 0)
      (effects (font (size 1.27 1.27)) (justify left bottom) hide)
    )
    (property "ki_locked" "" (id 4) (at 0 0 0)
      (effects (font (size 1.27 1.27)))
    )
    (property "ki_fp_filters" "TC2030-IDC TC2030-IDC-NL" (id 5) (at 0 0 0)
      (effects (font (size 1.27 1.27)) hide)
    )
    (symbol "TC2030-IDC_0_0"
      (rectangle (start -3.81 -5.08) (end 3.81 5.08)
        (stroke (width 0.4064) (type default) (color 0 0 0 0))
        (fill (type background))
      )
      (polyline
        (pts
          (xy -2.54 -2.54)
          (xy -1.27 -2.54)
        )
        (stroke (width 0.6096) (type default) (color 0 0 0 0))
        (fill (type none))
      )
      (polyline
        (pts
          (xy -2.54 0)
          (xy -1.27 0)
        )
        (stroke (width 0.6096) (type default) (color 0 0 0 0))
        (fill (type none))
      )
      (polyline
        (pts
          (xy -2.54 2.54)
          (xy -1.27 2.54)
        )
        (stroke (width 0.6096) (type default) (color 0 0 0 0))
        (fill (type none))
      )
      (polyline
        (pts
          (xy 1.27 -2.54)
          (xy 2.54 -2.54)
        )
        (stroke (width 0.6096) (type default) (color 0 0 0 0))
        (fill (type none))
      )
      (polyline
        (pts
          (xy 1.27 0)
          (xy 2.54 0)
        )
        (stroke (width 0.6096) (type default) (color 0 0 0 0))
        (fill (type none))
      )
      (polyline
        (pts
          (xy 1.27 2.54)
          (xy 2.54 2.54)
        )
        (stroke (width 0.6096) (type default) (color 0 0 0 0))
        (fill (type none))
      )
      (pin passive line (at 7.62 -2.54 180) (length 5.08)
        (name "~" (effects (font (size 1.016 1.016))))
        (number "1" (effects (font (size 1.016 1.016))))
      )
      (pin passive line (at -7.62 -2.54 0) (length 5.08)
        (name "~" (effects (font (size 1.016 1.016))))
        (number "2" (effects (font (size 1.016 1.016))))
      )
      (pin passive line (at 7.62 0 180) (length 5.08)
        (name "~" (effects (font (size 1.016 1.016))))
        (number "3" (effects (font (size 1.016 1.016))))
      )
      (pin passive line (at -7.62 0 0) (length 5.08)
        (name "~" (effects (font (size 1.016 1.016))))
        (number "4" (effects (font (size 1.016 1.016))))
      )
      (pin passive line (at 7.62 2.54 180) (length 5.08)
        (name "~" (effects (font (size 1.016 1.016))))
        (number "5" (effects (font (size 1.016 1.016))))
      )
      (pin passive line (at -7.62 2.54 0) (length 5.08)
        (name "~" (effects (font (size 1.016 1.016))))
        (number "6" (effects (font (size 1.016 1.016))))
      )
    )
  )
  (symbol "TC2050-IDC" (pin_names (offset 1.016)) (in_bom yes) (on_board yes)
    (property "Reference" "J" (id 0) (at -5.08 8.382 0)
      (effects (font (size 1.27 1.27)) (justify left bottom))
    )
    (property "Value" "TC2050-IDC" (id 1) (at -5.08 -10.16 0)
      (effects (font (size 1.27 1.27)) (justify left bottom))
    )
    (property "Footprint" "TAG-CONNECT_TC2050-IDC" (id 2) (at 0 0 0)
      (effects (font (size 1.27 1.27)) (justify left bottom) hide)
    )
    (property "Datasheet" "" (id 3) (at 0 0 0)
      (effects (font (size 1.27 1.27)) (justify left bottom) hide)
    )
    (property "STANDARD" "Manufacturer Recommendations" (id 4) (at 0 0 0)
      (effects (font (size 1.27 1.27)) (justify left bottom) hide)
    )
    (property "PARTREV" "A" (id 5) (at 0 0 0)
      (effects (font (size 1.27 1.27)) (justify left bottom) hide)
    )
    (property "MF" "Tag Connect" (id 6) (at 0 0 0)
      (effects (font (size 1.27 1.27)) (justify left bottom) hide)
    )
    (property "ki_locked" "" (id 7) (at 0 0 0)
      (effects (font (size 1.27 1.27)))
    )
    (symbol "TC2050-IDC_0_0"
      (rectangle (start -5.08 -7.62) (end 5.08 7.62)
        (stroke (width 0.1524) (type default) (color 0 0 0 0))
        (fill (type background))
      )
      (pin passive line (at -10.16 5.08 0) (length 5.08)
        (name "1" (effects (font (size 1.016 1.016))))
        (number "1" (effects (font (size 1.016 1.016))))
      )
      (pin passive line (at 10.16 5.08 180) (length 5.08)
        (name "10" (effects (font (size 1.016 1.016))))
        (number "10" (effects (font (size 1.016 1.016))))
      )
      (pin passive line (at -10.16 2.54 0) (length 5.08)
        (name "2" (effects (font (size 1.016 1.016))))
        (number "2" (effects (font (size 1.016 1.016))))
      )
      (pin passive line (at -10.16 0 0) (length 5.08)
        (name "3" (effects (font (size 1.016 1.016))))
        (number "3" (effects (font (size 1.016 1.016))))
      )
      (pin passive line (at -10.16 -2.54 0) (length 5.08)
        (name "4" (effects (font (size 1.016 1.016))))
        (number "4" (effects (font (size 1.016 1.016))))
      )
      (pin passive line (at -10.16 -5.08 0) (length 5.08)
        (name "5" (effects (font (size 1.016 1.016))))
        (number "5" (effects (font (size 1.016 1.016))))
      )
      (pin passive line (at 10.16 -5.08 180) (length 5.08)
        (name "6" (effects (font (size 1.016 1.016))))
        (number "6" (effects (font (size 1.016 1.016))))
      )
      (pin passive line (at 10.16 -2.54 180) (length 5.08)
        (name "7" (effects (font (size 1.016 1.016))))
        (number "7" (effects (font (size 1.016 1.016))))
      )
      (pin passive line (at 10.16 0 180) (length 5.08)
        (name "8" (effects (font (size 1.016 1.016))))
        (number "8" (effects (font (size 1.016 1.016))))
      )
      (pin passive line (at 10.16 2.54 180) (length 5.08)
        (name "9" (effects (font (size 1.016 1.016))))
        (number "9" (effects (font (size 1.016 1.016))))
      )
    )
  )
  (symbol "TC2050-IDC-NL" (pin_names (offset 1.016)) (in_bom yes) (on_board yes)
    (property "Reference" "J" (id 0) (at -7.62 7.62 0)
      (effects (font (size 1.27 1.27)) (justify left bottom))
    )
    (property "Value" "TC2050-IDC-NL" (id 1) (at -7.62 -10.16 0)
      (effects (font (size 1.27 1.27)) (justify left bottom))
    )
    (property "Footprint" "TAG-CONNECT_TC2050-IDC-NL" (id 2) (at -13.97 -15.24 0)
      (effects (font (size 1.27 1.27)) (justify left bottom) hide)
    )
    (property "Datasheet" "" (id 3) (at 0 0 0)
      (effects (font (size 1.27 1.27)) (justify left bottom) hide)
    )
    (property "STANDARD" "Manufacturer recommendations" (id 4) (at -13.97 -12.7 0)
      (effects (font (size 1.27 1.27)) (justify left bottom) hide)
    )
    (property "MAXIMUM_PACKAGE_HEIGHT" "" (id 5) (at 0 0 0)
      (effects (font (size 1.27 1.27)) (justify left bottom) hide)
    )
    (property "MANUFACTURER" "Tag-Connect" (id 6) (at -5.08 -17.78 0)
      (effects (font (size 1.27 1.27)) (justify left bottom) hide)
    )
    (property "PARTREV" "A" (id 7) (at 0 -20.32 0)
      (effects (font (size 1.27 1.27)) (justify left bottom) hide)
    )
    (property "ki_locked" "" (id 8) (at 0 0 0)
      (effects (font (size 1.27 1.27)))
    )
    (symbol "TC2050-IDC-NL_0_0"
      (rectangle (start -7.62 -7.62) (end 7.62 7.62)
        (stroke (width 0.1524) (type default) (color 0 0 0 0))
        (fill (type background))
      )
      (pin passive line (at -12.7 5.08 0) (length 5.08)
        (name "VCC" (effects (font (size 1.016 1.016))))
        (number "1" (effects (font (size 1.016 1.016))))
      )
      (pin passive line (at 12.7 5.08 180) (length 5.08)
        (name "RESET" (effects (font (size 1.016 1.016))))
        (number "10" (effects (font (size 1.016 1.016))))
      )
      (pin passive line (at -12.7 2.54 0) (length 5.08)
        (name "TMS" (effects (font (size 1.016 1.016))))
        (number "2" (effects (font (size 1.016 1.016))))
      )
      (pin passive line (at -12.7 0 0) (length 5.08)
        (name "GND" (effects (font (size 1.016 1.016))))
        (number "3" (effects (font (size 1.016 1.016))))
      )
      (pin passive line (at -12.7 -2.54 0) (length 5.08)
        (name "TCK" (effects (font (size 1.016 1.016))))
        (number "4" (effects (font (size 1.016 1.016))))
      )
      (pin passive line (at -12.7 -5.08 0) (length 5.08)
        (name "GND/+5V" (effects (font (size 1.016 1.016))))
        (number "5" (effects (font (size 1.016 1.016))))
      )
      (pin passive line (at 12.7 -5.08 180) (length 5.08)
        (name "TDO" (effects (font (size 1.016 1.016))))
        (number "6" (effects (font (size 1.016 1.016))))
      )
      (pin passive line (at 12.7 -2.54 180) (length 5.08)
        (name "RTCLK" (effects (font (size 1.016 1.016))))
        (number "7" (effects (font (size 1.016 1.016))))
      )
      (pin passive line (at 12.7 0 180) (length 5.08)
        (name "TDI" (effects (font (size 1.016 1.016))))
        (number "8" (effects (font (size 1.016 1.016))))
      )
      (pin passive line (at 12.7 2.54 180) (length 5.08)
        (name "nTRST" (effects (font (size 1.016 1.016))))
        (number "9" (effects (font (size 1.016 1.016))))
      )
    )
  )
)
